(module 2X3 (layer F.Cu) (tedit 0)
  (fp_text reference U1 (at -1.27 -4.445) (layer F.SilkS) hide
    (effects (font (size 1.2065 1.2065) (thickness 0.127)) (justify right top))
  )
  (fp_text value ISP (at -1.905 -4.953 -180) (layer F.Fab)
    (effects (font (size 1.2065 1.2065) (thickness 0.156845)) (justify left bottom))
  )
  (fp_line (start -1.27 0.635) (end -0.635 1.27) (layer F.SilkS) (width 0.2032))
  (fp_line (start 0.635 1.27) (end 1.27 0.635) (layer F.SilkS) (width 0.2032))
  (fp_line (start 1.27 0.635) (end 1.905 1.27) (layer F.SilkS) (width 0.2032))
  (fp_line (start 3.175 1.27) (end 3.81 0.635) (layer F.SilkS) (width 0.2032))
  (fp_line (start 3.81 0.635) (end 4.445 1.27) (layer F.SilkS) (width 0.2032))
  (fp_line (start 5.715 1.27) (end 6.35 0.635) (layer F.SilkS) (width 0.2032))
  (fp_line (start -1.27 0.635) (end -1.27 -3.175) (layer F.SilkS) (width 0.2032))
  (fp_line (start -1.27 -3.175) (end -0.635 -3.81) (layer F.SilkS) (width 0.2032))
  (fp_line (start -0.635 -3.81) (end 0.635 -3.81) (layer F.SilkS) (width 0.2032))
  (fp_line (start 0.635 -3.81) (end 1.27 -3.175) (layer F.SilkS) (width 0.2032))
  (fp_line (start 1.27 -3.175) (end 1.905 -3.81) (layer F.SilkS) (width 0.2032))
  (fp_line (start 1.905 -3.81) (end 3.175 -3.81) (layer F.SilkS) (width 0.2032))
  (fp_line (start 3.175 -3.81) (end 3.81 -3.175) (layer F.SilkS) (width 0.2032))
  (fp_line (start 3.81 -3.175) (end 4.445 -3.81) (layer F.SilkS) (width 0.2032))
  (fp_line (start 4.445 -3.81) (end 5.715 -3.81) (layer F.SilkS) (width 0.2032))
  (fp_line (start 5.715 -3.81) (end 6.35 -3.175) (layer F.SilkS) (width 0.2032))
  (fp_line (start 1.27 -3.175) (end 1.27 0.635) (layer F.SilkS) (width 0.2032))
  (fp_line (start 3.81 -3.175) (end 3.81 0.635) (layer F.SilkS) (width 0.2032))
  (fp_line (start 6.35 -3.175) (end 6.35 0.635) (layer F.SilkS) (width 0.2032))
  (fp_line (start 4.445 1.27) (end 5.715 1.27) (layer F.SilkS) (width 0.2032))
  (fp_line (start 1.905 1.27) (end 3.175 1.27) (layer F.SilkS) (width 0.2032))
  (fp_line (start -0.635 1.27) (end 0.635 1.27) (layer F.SilkS) (width 0.2032))
  (fp_line (start 0.635 1.605) (end -0.635 1.605) (layer F.SilkS) (width 0.2032))
  (fp_poly (pts (xy -0.254 0.254) (xy 0.254 0.254) (xy 0.254 -0.254) (xy -0.254 -0.254)) (layer F.Fab) (width 0))
  (fp_poly (pts (xy -0.254 -2.286) (xy 0.254 -2.286) (xy 0.254 -2.794) (xy -0.254 -2.794)) (layer F.Fab) (width 0))
  (fp_poly (pts (xy 2.286 -2.286) (xy 2.794 -2.286) (xy 2.794 -2.794) (xy 2.286 -2.794)) (layer F.Fab) (width 0))
  (fp_poly (pts (xy 2.286 0.254) (xy 2.794 0.254) (xy 2.794 -0.254) (xy 2.286 -0.254)) (layer F.Fab) (width 0))
  (fp_poly (pts (xy 4.826 -2.286) (xy 5.334 -2.286) (xy 5.334 -2.794) (xy 4.826 -2.794)) (layer F.Fab) (width 0))
  (fp_poly (pts (xy 4.826 0.254) (xy 5.334 0.254) (xy 5.334 -0.254) (xy 4.826 -0.254)) (layer F.Fab) (width 0))
  (pad 1 thru_hole circle (at 0 0) (size 1.8796 1.8796) (drill 1.016) (layers *.Cu *.Mask)
    (solder_mask_margin 0.1016))
  (pad 2 thru_hole circle (at 0 -2.54) (size 1.8796 1.8796) (drill 1.016) (layers *.Cu *.Mask)
    (solder_mask_margin 0.1016))
  (pad 3 thru_hole circle (at 2.54 0) (size 1.8796 1.8796) (drill 1.016) (layers *.Cu *.Mask)
    (solder_mask_margin 0.1016))
  (pad 4 thru_hole circle (at 2.54 -2.54) (size 1.8796 1.8796) (drill 1.016) (layers *.Cu *.Mask)
    (solder_mask_margin 0.1016))
  (pad 5 thru_hole circle (at 5.08 0) (size 1.8796 1.8796) (drill 1.016) (layers *.Cu *.Mask)
    (solder_mask_margin 0.1016))
  (pad 6 thru_hole circle (at 5.08 -2.54) (size 1.8796 1.8796) (drill 1.016) (layers *.Cu *.Mask)
    (solder_mask_margin 0.1016))
)
