(module DO41-7.6 (layer F.Cu) (tedit 0)
  (descr "<b>DO41</b> 7.6mm x 2mm<p>\nSource: http://www.diodes.com/datasheets/ds23001.pdf")
  (fp_text reference D8 (at -2.159 1.778 -270) (layer F.SilkS)
    (effects (font (size 0.9652 0.9652) (thickness 0.09652)) (justify left bottom))
  )
  (fp_text value 1N5819 (at -1.016 1.778 -270) (layer F.Fab)
    (effects (font (size 0.77216 0.77216) (thickness 0.077216)) (justify left bottom))
  )
  (fp_line (start 2.082 0.92) (end -2.082 0.92) (layer F.SilkS) (width 0.1524))
  (fp_line (start 2.082 0.92) (end 2.082 -0.92) (layer F.SilkS) (width 0.1524))
  (fp_line (start -2.082 -0.92) (end 2.082 -0.92) (layer F.SilkS) (width 0.1524))
  (fp_line (start -2.082 -0.92) (end -2.082 0.92) (layer F.SilkS) (width 0.1524))
  (fp_line (start 3.81 0) (end 2.494 0) (layer F.Fab) (width 0.85))
  (fp_line (start -3.81 0) (end -2.519 0) (layer F.Fab) (width 0.85))
  (fp_line (start -0.635 0) (end 0 0) (layer F.SilkS) (width 0.1524))
  (fp_line (start 1.016 -0.635) (end 1.016 0.635) (layer F.SilkS) (width 0.1524))
  (fp_line (start 1.016 0.635) (end 0 0) (layer F.SilkS) (width 0.1524))
  (fp_line (start 0 0) (end 1.524 0) (layer F.SilkS) (width 0.1524))
  (fp_line (start 0 0) (end 1.016 -0.635) (layer F.SilkS) (width 0.1524))
  (fp_line (start 0 -0.635) (end 0 0) (layer F.SilkS) (width 0.1524))
  (fp_line (start 0 0) (end 0 0.635) (layer F.SilkS) (width 0.1524))
  (fp_poly (pts (xy -1.651 0.95) (xy -1.143 0.95) (xy -1.143 -0.92) (xy -1.651 -0.92)) (layer F.SilkS) (width 0))
  (fp_poly (pts (xy 2.082 0.425) (xy 2.717 0.425) (xy 2.717 -0.425) (xy 2.082 -0.425)) (layer F.SilkS) (width 0))
  (fp_poly (pts (xy -2.717 0.425) (xy -2.082 0.425) (xy -2.082 -0.425) (xy -2.717 -0.425)) (layer F.SilkS) (width 0))
  (pad C thru_hole circle (at -3.81 0) (size 1.7 1.7) (drill 1.1) (layers *.Cu *.Mask)
    (solder_mask_margin 0.1016))
  (pad A thru_hole circle (at 3.81 0) (size 1.7 1.7) (drill 1.1) (layers *.Cu *.Mask)
    (solder_mask_margin 0.1016))
)
