(module MAB5SH (layer F.Cu) (tedit 0)
  (descr "Female <b>CONNECTOR</b><p>\n5 pins 90 deg. with shield, horizontal (DIN 41524)")
  (fp_text reference X1 (at 3.429 -2.794) (layer F.SilkS)
    (effects (font (size 1.6891 1.6891) (thickness 0.16891)) (justify left bottom))
  )
  (fp_text value MIDI (at -5.08 -2.54) (layer F.Fab)
    (effects (font (size 1.6891 1.6891) (thickness 0.16891)) (justify left bottom))
  )
  (fp_line (start -10.668 5.08) (end 9.779 5.08) (layer F.SilkS) (width 0.1524))
  (fp_line (start 6.096 -11.176) (end 7.112 -8.89) (layer F.Fab) (width 0.1524))
  (fp_line (start 8.763 -8.89) (end 7.112 -8.89) (layer F.Fab) (width 0.1524))
  (fp_line (start 8.763 -8.89) (end 9.779 -5.08) (layer F.SilkS) (width 0.1524))
  (fp_line (start 7.62 3.175) (end 7.62 -0.381) (layer F.SilkS) (width 0.1524))
  (fp_line (start 9.779 -0.381) (end 7.62 -0.381) (layer F.SilkS) (width 0.1524))
  (fp_line (start 9.779 -0.381) (end 9.779 -5.08) (layer F.SilkS) (width 0.1524))
  (fp_line (start 9.779 5.08) (end 9.779 4.318) (layer F.SilkS) (width 0.1524))
  (fp_line (start 10.668 4.318) (end 9.779 4.318) (layer F.SilkS) (width 0.1524))
  (fp_line (start 10.668 4.318) (end 10.668 3.81) (layer F.SilkS) (width 0.1524))
  (fp_line (start 10.668 3.81) (end 9.779 3.81) (layer F.SilkS) (width 0.1524))
  (fp_line (start 9.779 3.175) (end 9.779 3.81) (layer F.SilkS) (width 0.1524))
  (fp_line (start 9.779 3.175) (end 7.62 3.175) (layer F.SilkS) (width 0.1524))
  (fp_line (start 9.779 -5.08) (end 7.62 -5.08) (layer F.SilkS) (width 0.1524))
  (fp_line (start 7.112 -8.89) (end 6.35 -8.89) (layer F.Fab) (width 0.1524))
  (fp_line (start 6.35 -8.89) (end 3.175 -8.89) (layer F.Fab) (width 0.1524))
  (fp_line (start 1.905 -8.89) (end 1.905 -6.985) (layer F.SilkS) (width 0.1524))
  (fp_line (start 6.096 -11.176) (end 1.905 -11.176) (layer F.Fab) (width 0.1524))
  (fp_line (start 1.905 -11.176) (end 0.635 -11.176) (layer F.SilkS) (width 0.1524))
  (fp_line (start 1.905 -11.176) (end 1.905 -9.652) (layer F.SilkS) (width 0.1524))
  (fp_line (start -1.905 -11.176) (end -1.905 -9.652) (layer F.SilkS) (width 0.1524))
  (fp_line (start -1.905 -11.176) (end -6.223 -11.176) (layer F.Fab) (width 0.1524))
  (fp_line (start -1.905 -9.017) (end -3.175 -9.017) (layer F.SilkS) (width 0.1524))
  (fp_line (start -1.905 -9.017) (end -1.905 -7.112) (layer F.SilkS) (width 0.1524))
  (fp_line (start -6.35 -9.017) (end -6.35 -5.08) (layer F.Fab) (width 0.1524))
  (fp_line (start -6.35 -9.017) (end -7.112 -9.017) (layer F.Fab) (width 0.1524))
  (fp_line (start 6.35 -8.89) (end 6.35 -5.08) (layer F.Fab) (width 0.1524))
  (fp_line (start 7.62 -5.08) (end 1.905 -5.08) (layer F.SilkS) (width 0.1524))
  (fp_line (start 1.905 -5.08) (end -1.905 -5.08) (layer F.SilkS) (width 0.1524))
  (fp_line (start -10.668 5.08) (end -10.668 4.318) (layer F.SilkS) (width 0.1524))
  (fp_line (start -9.525 4.318) (end -10.668 4.318) (layer F.SilkS) (width 0.1524))
  (fp_line (start -9.525 4.318) (end -9.525 3.81) (layer F.SilkS) (width 0.1524))
  (fp_line (start -10.668 3.81) (end -9.525 3.81) (layer F.SilkS) (width 0.1524))
  (fp_line (start -10.668 3.81) (end -10.668 3.175) (layer F.SilkS) (width 0.1524))
  (fp_line (start -7.62 3.175) (end -10.668 3.175) (layer F.SilkS) (width 0.1524))
  (fp_line (start -7.62 3.175) (end -7.62 -0.381) (layer F.SilkS) (width 0.1524))
  (fp_line (start -9.779 -0.381) (end -7.62 -0.381) (layer F.SilkS) (width 0.1524))
  (fp_line (start -9.779 -0.381) (end -9.779 -5.08) (layer F.SilkS) (width 0.1524))
  (fp_line (start -8.763 -9.017) (end -9.779 -5.08) (layer F.SilkS) (width 0.1524))
  (fp_line (start -7.112 -9.017) (end -6.223 -11.176) (layer F.Fab) (width 0.1524))
  (fp_line (start -1.905 -5.08) (end -7.62 -5.08) (layer F.SilkS) (width 0.1524))
  (fp_line (start -7.62 -5.08) (end -9.779 -5.08) (layer F.SilkS) (width 0.1524))
  (fp_line (start -8.763 -9.017) (end -7.112 -9.017) (layer F.Fab) (width 0.1524))
  (fp_line (start 7.62 -0.381) (end 7.62 -1.143) (layer F.SilkS) (width 0.1524))
  (fp_line (start 7.62 -5.08) (end 7.62 -3.937) (layer F.SilkS) (width 0.1524))
  (fp_line (start 7.62 -3.937) (end 7.62 -1.143) (layer F.Fab) (width 0.1524))
  (fp_line (start -7.62 -0.381) (end -7.62 -1.143) (layer F.SilkS) (width 0.1524))
  (fp_line (start -7.62 -5.08) (end -7.62 -3.937) (layer F.SilkS) (width 0.1524))
  (fp_line (start -7.62 -3.937) (end -7.62 -1.143) (layer F.Fab) (width 0.1524))
  (fp_line (start -3.175 -9.017) (end -3.175 -7.112) (layer F.SilkS) (width 0.1524))
  (fp_line (start -3.175 -9.017) (end -6.35 -9.017) (layer F.Fab) (width 0.1524))
  (fp_line (start -1.905 -7.112) (end -3.175 -7.112) (layer F.SilkS) (width 0.1524))
  (fp_line (start -1.905 -7.112) (end -1.905 -5.08) (layer F.SilkS) (width 0.1524))
  (fp_line (start 1.905 -6.985) (end 3.175 -6.985) (layer F.SilkS) (width 0.1524))
  (fp_line (start 1.905 -6.985) (end 1.905 -5.08) (layer F.SilkS) (width 0.1524))
  (fp_line (start 3.175 -8.89) (end 3.175 -6.985) (layer F.SilkS) (width 0.1524))
  (fp_line (start 3.175 -8.89) (end 1.905 -8.89) (layer F.SilkS) (width 0.1524))
  (fp_line (start -1.905 -9.652) (end -0.635 -9.652) (layer F.SilkS) (width 0.1524))
  (fp_line (start -1.905 -9.652) (end -1.905 -9.017) (layer F.SilkS) (width 0.1524))
  (fp_line (start -0.635 -11.176) (end -0.635 -9.652) (layer F.SilkS) (width 0.1524))
  (fp_line (start -0.635 -11.176) (end -1.905 -11.176) (layer F.SilkS) (width 0.1524))
  (fp_line (start 1.905 -9.652) (end 0.635 -9.652) (layer F.SilkS) (width 0.1524))
  (fp_line (start 1.905 -9.652) (end 1.905 -8.89) (layer F.SilkS) (width 0.1524))
  (fp_line (start 0.635 -11.176) (end 0.635 -9.652) (layer F.SilkS) (width 0.1524))
  (fp_line (start 0.635 -11.176) (end -0.635 -11.176) (layer F.SilkS) (width 0.1524))
  (fp_line (start -7.493 3.175) (end -3.683 3.175) (layer F.SilkS) (width 0.1524))
  (fp_line (start -1.397 3.175) (end -3.683 3.175) (layer F.Fab) (width 0.1524))
  (fp_line (start -1.397 3.175) (end 1.397 3.175) (layer F.SilkS) (width 0.1524))
  (fp_line (start 3.683 3.175) (end 1.397 3.175) (layer F.Fab) (width 0.1524))
  (fp_line (start 3.683 3.175) (end 7.62 3.175) (layer F.SilkS) (width 0.1524))
  (fp_text user 2 (at -1.651 -5.334) (layer F.SilkS)
    (effects (font (size 1.2065 1.2065) (thickness 0.127)) (justify left bottom))
  )
  (fp_text user 4 (at 7.239 -9.525) (layer F.SilkS)
    (effects (font (size 1.2065 1.2065) (thickness 0.127)) (justify left bottom))
  )
  (fp_text user 5 (at -8.255 -9.525) (layer F.SilkS)
    (effects (font (size 1.2065 1.2065) (thickness 0.127)) (justify left bottom))
  )
  (fp_text user 3 (at -6.223 -5.334) (layer F.SilkS)
    (effects (font (size 1.2065 1.2065) (thickness 0.127)) (justify left bottom))
  )
  (fp_text user 1 (at 5.08 -5.334) (layer F.SilkS)
    (effects (font (size 1.2065 1.2065) (thickness 0.127)) (justify left bottom))
  )
  (fp_poly (pts (xy 3.175 -7.112) (xy 8.001 -7.112) (xy 8.001 -8.128) (xy 3.175 -8.128)) (layer F.Fab) (width 0))
  (fp_poly (pts (xy 0.635 -9.652) (xy 5.461 -9.652) (xy 5.461 -10.668) (xy 0.635 -10.668)) (layer F.Fab) (width 0))
  (fp_poly (pts (xy -5.461 -9.652) (xy -0.635 -9.652) (xy -0.635 -10.668) (xy -5.461 -10.668)) (layer F.Fab) (width 0))
  (fp_poly (pts (xy -8.001 -7.112) (xy -3.175 -7.112) (xy -3.175 -8.128) (xy -8.001 -8.128)) (layer F.Fab) (width 0))
  (pad 2 thru_hole oval (at 0 -7.62 90) (size 3.9624 1.9812) (drill 1.3208) (layers *.Cu *.Mask)
    (solder_mask_margin 0.1016))
  (pad 1 thru_hole circle (at 7.62 -7.62) (size 1.9812 1.9812) (drill 1.3208) (layers *.Cu *.Mask)
    (solder_mask_margin 0.1016))
  (pad 3 thru_hole circle (at -7.62 -7.62) (size 1.9812 1.9812) (drill 1.3208) (layers *.Cu *.Mask)
    (solder_mask_margin 0.1016))
  (pad 4 thru_hole circle (at 5.08 -10.16) (size 1.9812 1.9812) (drill 1.3208) (layers *.Cu *.Mask)
    (solder_mask_margin 0.1016))
  (pad 5 thru_hole circle (at -5.08 -10.16) (size 1.9812 1.9812) (drill 1.3208) (layers *.Cu *.Mask)
    (solder_mask_margin 0.1016))
  (pad P$1 thru_hole circle (at -5.08 2.54) (size 1.9812 1.9812) (drill 1.3208) (layers *.Cu *.Mask)
    (solder_mask_margin 0.1016))
  (pad P$2 thru_hole circle (at -2.54 2.54) (size 1.9812 1.9812) (drill 1.3208) (layers *.Cu *.Mask)
    (solder_mask_margin 0.1016))
  (pad P$3 thru_hole circle (at 2.54 2.54) (size 1.9812 1.9812) (drill 1.3208) (layers *.Cu *.Mask)
    (solder_mask_margin 0.1016))
  (pad P$4 thru_hole circle (at 5.08 2.54) (size 1.9812 1.9812) (drill 1.3208) (layers *.Cu *.Mask)
    (solder_mask_margin 0.1016))
)
