(footprint "TO92-" (version 20211014) (generator pcbnew)
  (layer "F.Cu")
  (tedit 61F0180F)
  (attr through_hole)
  (fp_text reference "Q1" (at -0.762 -2.921) (layer "F.SilkS")
    (effects (font (size 1.2065 1.2065) (thickness 0.14478)) (justify left bottom))
    (tstamp 24c8faf6-5a00-4700-ae4a-5100e8f5d4fb)
  )
  (fp_text value "2N3904" (at -2.794 -4.445) (layer "F.Fab")
    (effects (font (size 1.2065 1.2065) (thickness 0.14478)) (justify left bottom))
    (tstamp ee8a1f5c-6849-44bb-aa96-273257d11dd7)
  )
  (fp_text user "${VALUE}" (at 0 3) (layer "F.SilkS")
    (effects (font (size 1.2065 1.2065) (thickness 0.14478)))
    (tstamp e46a50a3-dcb1-4ed6-8161-161dab971f15)
  )
  (fp_line (start -1.631 1.778) (end 1.631 1.778) (layer "F.SilkS") (width 0.1524) (tstamp 27cd0bdf-ac16-43ca-825e-a75693c01e68))
  (fp_line (start 0 0) (end 0 -0.254) (layer "F.SilkS") (width 0.508) (tstamp 328e28fe-315f-415a-a304-0cf02f222af7))
  (fp_line (start -2.54 0) (end -1.778 0) (layer "F.SilkS") (width 0.508) (tstamp 8f63bd6a-003c-4482-a723-b45629de0099))
  (fp_line (start 2.54 0) (end 1.778 0) (layer "F.SilkS") (width 0.508) (tstamp ccb7e5e0-0762-4f2d-a0a6-174cc48c8639))
  (fp_arc (start 0.9689 -2.2098) (mid 2.380097 -0.395238) (end 1.631001 1.778001) (layer "F.SilkS") (width 0.1524) (tstamp 6f47a91a-3eee-425b-b91c-b9dbe92c07c8))
  (fp_arc (start -1.631 1.778) (mid -2.380096 -0.395238) (end -0.968899 -2.209799) (layer "F.SilkS") (width 0.1524) (tstamp fe0a6db8-4476-44d1-a495-cac6f7d26f7b))
  (fp_arc (start -0.9692 -2.2098) (mid 0 -2.412999) (end 0.9692 -2.2098) (layer "F.Fab") (width 0.1524) (tstamp a1c3f9d1-3d28-41e5-81ce-a1809f9a5d5f))
  (pad "1" thru_hole circle (at 2.54 0) (size 1.3096 1.3096) (drill 0.7) (layers *.Cu *.Mask)
    (solder_mask_margin 0.1016) (tstamp 9908b290-8381-46d5-88ca-8fb39f34b960))
  (pad "2" thru_hole circle (at 0 0) (size 1.3096 1.3096) (drill 0.7) (layers *.Cu *.Mask)
    (solder_mask_margin 0.1016) (tstamp 7013ae71-7423-488a-9d44-fb79e8cc67dd))
  (pad "3" thru_hole circle (at -2.54 0) (size 1.3096 1.3096) (drill 0.7) (layers *.Cu *.Mask)
    (solder_mask_margin 0.1016) (tstamp 39ff0070-ce04-4b1f-9cb5-470c2baee640))
)
