EESchema Schematic File Version 4
EELAYER 30 0
EELAYER END
$Descr User 12505 9794
encoding utf-8
Sheet 1 5
Title ""
Date ""
Rev ""
Comp ""
Comment1 ""
Comment2 ""
Comment3 ""
Comment4 ""
$EndDescr
Wire Bus Line
	5600 7800 5600 7500
Wire Bus Line
	5600 7500 5500 7400
Wire Bus Line
	5500 7400 4700 7400
Text Label 5550 7450 2    70   ~ 0
LCD_DATA[4..7]
Wire Wire Line
	8400 4800 8300 4800
Wire Wire Line
	8300 4800 8300 4900
Text GLabel 8400 4800 0    10   BiDi ~ 0
GND
Wire Wire Line
	1700 7900 1700 8000
Wire Wire Line
	1700 8000 1900 8000
Wire Wire Line
	1900 8000 1900 8100
Wire Wire Line
	2200 7800 2200 8000
Wire Wire Line
	2500 8000 2500 7800
Wire Wire Line
	2500 8000 2200 8000
Wire Wire Line
	2200 8000 1900 8000
Wire Wire Line
	1900 7900 1900 8000
Wire Wire Line
	2500 8000 2800 8000
Wire Wire Line
	2800 8000 2800 7800
Wire Wire Line
	2800 8000 3100 8000
Wire Wire Line
	3100 8000 3100 7800
Connection ~ 1900 8000
Connection ~ 2200 8000
Connection ~ 2500 8000
Connection ~ 2800 8000
Text GLabel 1700 7900 0    10   BiDi ~ 0
GND
Wire Wire Line
	11200 1000 11300 1000
Wire Wire Line
	11300 1000 11300 1400
Wire Wire Line
	11300 1400 11400 1400
Wire Wire Line
	11200 1400 11300 1400
Connection ~ 11300 1400
Text GLabel 11200 1000 0    10   BiDi ~ 0
GND
Wire Wire Line
	4700 7100 4700 7000
Text GLabel 4700 7100 0    10   BiDi ~ 0
GND
Wire Wire Line
	5700 8100 5700 8200
Wire Wire Line
	5800 8100 5700 8100
Text GLabel 5700 8100 0    10   BiDi ~ 0
GND
Wire Wire Line
	5000 7000 5000 7100
Wire Wire Line
	5800 7000 5000 7000
Text GLabel 5000 7000 0    10   BiDi ~ 0
GND
Wire Wire Line
	5800 6600 5700 6600
Wire Wire Line
	5700 6600 5700 6500
Wire Wire Line
	5700 6500 5300 6500
Wire Wire Line
	5300 6500 5300 6600
Text GLabel 5800 6600 0    10   BiDi ~ 0
GND
Wire Wire Line
	11400 2500 11200 2500
Wire Wire Line
	11400 2800 11400 2500
Wire Wire Line
	11200 2800 11400 2800
Wire Wire Line
	11400 3100 11400 2800
Wire Wire Line
	11200 3100 11400 3100
Wire Wire Line
	11400 3400 11400 3100
Wire Wire Line
	11200 3400 11400 3400
Wire Wire Line
	11200 3700 11400 3700
Wire Wire Line
	11400 3700 11400 3400
Wire Wire Line
	11400 3700 11400 4000
Wire Wire Line
	11400 4000 11400 4100
Wire Wire Line
	11200 4000 11400 4000
Connection ~ 11400 2800
Connection ~ 11400 3100
Connection ~ 11400 3400
Connection ~ 11400 3700
Connection ~ 11400 4000
Text GLabel 11400 2500 0    10   BiDi ~ 0
GND
Wire Wire Line
	10800 5900 10700 5900
Wire Wire Line
	10700 5900 10700 6000
Text GLabel 10800 5900 0    10   BiDi ~ 0
GND
Wire Wire Line
	10800 6700 10700 6700
Wire Wire Line
	10700 6700 10700 6800
Text GLabel 10800 6700 0    10   BiDi ~ 0
GND
Wire Wire Line
	8700 2100 8700 2200
Text GLabel 8700 2100 0    10   BiDi ~ 0
GND
Wire Wire Line
	7900 2100 8000 2100
Wire Wire Line
	8000 2100 8000 2200
Wire Wire Line
	7900 2000 8000 2000
Wire Wire Line
	8000 2000 8000 2100
Connection ~ 8000 2100
Text GLabel 7900 2100 0    10   BiDi ~ 0
GND
Wire Wire Line
	6200 2200 6200 2300
Wire Wire Line
	6000 2200 6200 2200
Text GLabel 6200 2200 0    10   BiDi ~ 0
GND
Wire Wire Line
	5000 4600 5000 4900
Wire Wire Line
	5000 4600 5000 4300
Wire Wire Line
	5000 4300 5000 4200
Wire Wire Line
	5000 4200 5000 3500
Wire Wire Line
	5000 3500 5100 3500
Wire Wire Line
	5100 4600 5000 4600
Wire Wire Line
	5100 4200 5000 4200
Wire Wire Line
	5100 4300 5000 4300
Connection ~ 5000 4600
Connection ~ 5000 4300
Connection ~ 5000 4200
Text GLabel 5000 4600 0    10   BiDi ~ 0
GND
Wire Wire Line
	2500 5600 2400 5600
Wire Wire Line
	2400 5600 2400 5700
Wire Wire Line
	2400 5700 2400 5800
Wire Wire Line
	2500 5700 2400 5700
Connection ~ 2400 5700
Text GLabel 2500 5600 0    10   BiDi ~ 0
GND
Wire Wire Line
	2500 5200 2400 5200
Wire Wire Line
	2400 5200 2400 5300
Wire Wire Line
	2400 5300 2400 5400
Wire Wire Line
	2500 5300 2400 5300
Connection ~ 2400 5300
Text GLabel 2500 5200 0    10   BiDi ~ 0
GND
Wire Wire Line
	2500 4800 2400 4800
Wire Wire Line
	2400 4800 2400 4900
Wire Wire Line
	2400 4900 2400 5000
Wire Wire Line
	2500 4900 2400 4900
Connection ~ 2400 4900
Text GLabel 2500 4800 0    10   BiDi ~ 0
GND
Wire Wire Line
	2500 4400 2400 4400
Wire Wire Line
	2400 4400 2400 4500
Wire Wire Line
	2400 4500 2400 4600
Wire Wire Line
	2500 4500 2400 4500
Connection ~ 2400 4500
Text GLabel 2500 4400 0    10   BiDi ~ 0
GND
Wire Wire Line
	2500 3600 2400 3600
Wire Wire Line
	2400 3600 2400 3700
Wire Wire Line
	2400 3700 2400 3800
Wire Wire Line
	2500 3700 2400 3700
Connection ~ 2400 3700
Text GLabel 2500 3600 0    10   BiDi ~ 0
GND
Wire Wire Line
	2500 4000 2400 4000
Wire Wire Line
	2400 4000 2400 4100
Wire Wire Line
	2400 4100 2400 4200
Wire Wire Line
	2500 4100 2400 4100
Connection ~ 2400 4100
Text GLabel 2500 4000 0    10   BiDi ~ 0
GND
Wire Wire Line
	9400 3900 9500 3900
Wire Wire Line
	9500 3900 9500 2500
Wire Wire Line
	9500 2500 10400 2500
Wire Wire Line
	9600 4000 9400 4000
Wire Wire Line
	9600 4000 9600 2800
Wire Wire Line
	9600 2800 10400 2800
Wire Wire Line
	9400 4200 9800 4200
Wire Wire Line
	9800 4200 9800 3400
Wire Wire Line
	9800 3400 10400 3400
Wire Wire Line
	10800 2500 10900 2500
Wire Wire Line
	10900 2800 10800 2800
Wire Wire Line
	10800 3100 10900 3100
Wire Wire Line
	10800 3400 10900 3400
Wire Wire Line
	9400 4100 9700 4100
Wire Wire Line
	9700 4100 9700 3100
Wire Wire Line
	9700 3100 10400 3100
Wire Wire Line
	5800 8000 5600 8000
Wire Wire Line
	5800 6900 5700 6900
Text GLabel 5700 6900 0    70   BiDi ~ 0
LCD_RS
Wire Wire Line
	5800 7100 5700 7100
Text GLabel 5700 7100 0    70   BiDi ~ 0
LCD_ENABLE
Wire Wire Line
	5700 7900 5800 7900
Text GLabel 5700 7900 0    10   BiDi ~ 0
LCD_DATA7
Wire Wire Line
	5700 7800 5800 7800
Text GLabel 5700 7800 0    10   BiDi ~ 0
LCD_DATA6
Wire Wire Line
	5700 7700 5800 7700
Text GLabel 5700 7700 0    10   BiDi ~ 0
LCD_DATA5
Wire Wire Line
	5700 7600 5800 7600
Text GLabel 5700 7600 0    10   BiDi ~ 0
LCD_DATA4
Wire Wire Line
	4900 6800 5800 6800
Wire Wire Line
	8300 3900 8400 3900
Text GLabel 8300 3900 0    70   BiDi ~ 0
IO_OUTPUT
Wire Wire Line
	8300 4400 8400 4400
Text GLabel 8300 4400 0    70   BiDi ~ 0
IO_ENABLE
Wire Wire Line
	5100 4700 4800 4700
Text GLabel 4800 4700 0    70   BiDi ~ 0
IO_ENABLE
Wire Wire Line
	8300 4100 8400 4100
Text GLabel 8300 4100 0    70   BiDi ~ 0
IO_SCK
Wire Wire Line
	4800 4500 5100 4500
Text GLabel 4800 4500 0    70   BiDi ~ 0
IO_SCK
Wire Wire Line
	10700 1300 10800 1300
Connection ~ 10800 1300
Text GLabel 10700 1300 0    70   BiDi ~ 0
ENC_B
Wire Wire Line
	10700 1500 10800 1500
Connection ~ 10800 1500
Text GLabel 10700 1500 0    70   BiDi ~ 0
ENC_A
Wire Wire Line
	10800 1000 10700 1000
Text GLabel 10700 1000 0    70   BiDi ~ 0
ENC_CLICK
Wire Wire Line
	5200 8000 5100 8000
Wire Wire Line
	5100 8000 5100 7900
Text GLabel 5200 8000 0    10   BiDi ~ 0
+5V
Wire Wire Line
	4700 6500 4700 6600
Text GLabel 4700 6500 0    10   BiDi ~ 0
+5V
Wire Wire Line
	8400 4200 7900 4200
Text GLabel 8400 4200 0    10   BiDi ~ 0
+5V
Wire Wire Line
	5700 6700 5800 6700
Text GLabel 5700 6700 0    10   BiDi ~ 0
+5V
Wire Wire Line
	1700 7300 1700 7200
Wire Wire Line
	1700 7200 1900 7200
Wire Wire Line
	2200 7500 2200 7200
Wire Wire Line
	2500 7200 2500 7500
Wire Wire Line
	1900 7200 2200 7200
Wire Wire Line
	2200 7200 2500 7200
Wire Wire Line
	2500 7200 2800 7200
Wire Wire Line
	2800 7200 2800 7500
Wire Wire Line
	1900 7100 1900 7200
Wire Wire Line
	2800 7200 3100 7200
Wire Wire Line
	3100 7200 3100 7500
Connection ~ 1900 7200
Connection ~ 1900 7200
Connection ~ 2200 7200
Connection ~ 2500 7200
Connection ~ 2800 7200
Text GLabel 1700 7300 0    10   BiDi ~ 0
+5V
Wire Wire Line
	6000 1800 6100 1800
Wire Wire Line
	6100 1800 6100 1300
Wire Wire Line
	6100 1300 6300 1300
Wire Wire Line
	6300 1300 6300 1400
Wire Wire Line
	6100 1200 6100 1300
Connection ~ 6100 1300
Text GLabel 6000 1800 0    10   BiDi ~ 0
+5V
Wire Wire Line
	4200 2800 4200 2900
Text GLabel 4200 2800 0    10   BiDi ~ 0
+5V
Wire Wire Line
	8700 1000 8700 1100
Text GLabel 8700 1000 0    10   BiDi ~ 0
+5V
Wire Wire Line
	9400 4300 9900 4300
Wire Wire Line
	9900 4300 9900 3700
Wire Wire Line
	9900 3700 10400 3700
Wire Wire Line
	10800 3700 10900 3700
Wire Wire Line
	10300 5700 10800 5700
Wire Wire Line
	10800 6500 10300 6500
Wire Wire Line
	7900 1900 8000 1900
Wire Wire Line
	8400 1900 8500 1900
Wire Wire Line
	8700 1700 8700 1600
Wire Wire Line
	8700 1600 8700 1500
Wire Wire Line
	8700 1600 8900 1600
Connection ~ 8700 1600
Text GLabel 8900 1600 2    70   BiDi ~ 0
GATE_IN
Wire Wire Line
	4100 1800 4200 1800
Wire Wire Line
	3000 1800 3100 1800
Wire Wire Line
	3000 2200 4700 2200
Wire Wire Line
	3000 2200 3000 1800
Wire Wire Line
	4700 2100 4700 2200
Wire Wire Line
	5000 2200 4700 2200
Connection ~ 4700 2200
Connection ~ 5000 2200
Wire Wire Line
	4600 1800 4700 1800
Wire Wire Line
	4700 1800 5000 1800
Wire Wire Line
	5000 1800 5100 1800
Wire Wire Line
	4700 1900 4700 1800
Connection ~ 4700 1800
Connection ~ 5000 1800
Wire Wire Line
	6000 2000 6300 2000
Wire Wire Line
	6300 1800 6300 2000
Wire Wire Line
	6300 2000 6500 2000
Connection ~ 6300 2000
Text GLabel 6500 2000 2    70   BiDi ~ 0
MIDI_IN
Wire Wire Line
	6200 3600 6100 3600
Text GLabel 6200 3600 2    70   BiDi ~ 0
IO_INPUT
Wire Wire Line
	2900 5200 3000 5200
Wire Wire Line
	2900 5300 3000 5300
Wire Wire Line
	3000 5300 3000 5200
Wire Wire Line
	3000 5200 3400 5200
Wire Wire Line
	3400 5200 3400 4000
Wire Wire Line
	4300 4000 5100 4000
Wire Wire Line
	4300 3500 4300 4000
Wire Wire Line
	3400 4000 4300 4000
Connection ~ 3000 5200
Connection ~ 4300 4000
Wire Wire Line
	2900 5600 3000 5600
Wire Wire Line
	2900 5700 3000 5700
Wire Wire Line
	3000 5700 3000 5600
Wire Wire Line
	3000 5600 3500 5600
Wire Wire Line
	3500 5600 3500 4100
Wire Wire Line
	4200 4100 5100 4100
Wire Wire Line
	4200 3500 4200 4100
Wire Wire Line
	3500 4100 4200 4100
Connection ~ 3000 5600
Connection ~ 4200 4100
Wire Wire Line
	2900 4800 3000 4800
Wire Wire Line
	2900 4900 3000 4900
Wire Wire Line
	3000 4900 3000 4800
Wire Wire Line
	3000 4800 3300 4800
Wire Wire Line
	3300 4800 3300 3900
Wire Wire Line
	4400 3900 5100 3900
Wire Wire Line
	4400 3500 4400 3900
Wire Wire Line
	3300 3900 4400 3900
Connection ~ 3000 4800
Connection ~ 4400 3900
Wire Wire Line
	2900 3600 3000 3600
Wire Wire Line
	2900 3700 3000 3700
Wire Wire Line
	3000 3700 3000 3600
Wire Wire Line
	4700 3600 5100 3600
Wire Wire Line
	4700 3500 4700 3600
Wire Wire Line
	3000 3600 4700 3600
Connection ~ 4700 3600
Connection ~ 3000 3600
Wire Wire Line
	2900 4000 3000 4000
Wire Wire Line
	2900 4100 3000 4100
Wire Wire Line
	3000 4100 3000 4000
Wire Wire Line
	3000 4000 3100 4000
Wire Wire Line
	3100 4000 3100 3700
Wire Wire Line
	4600 3700 5100 3700
Wire Wire Line
	4600 3500 4600 3700
Wire Wire Line
	3100 3700 4600 3700
Connection ~ 3000 4000
Connection ~ 4600 3700
Wire Wire Line
	2900 4400 3000 4400
Wire Wire Line
	2900 4500 3000 4500
Wire Wire Line
	3000 4500 3000 4400
Wire Wire Line
	3000 4400 3200 4400
Wire Wire Line
	3200 4400 3200 3800
Wire Wire Line
	4500 3800 5100 3800
Wire Wire Line
	4500 3500 4500 3800
Wire Wire Line
	3200 3800 4500 3800
Connection ~ 3000 4400
Connection ~ 4500 3800
Wire Wire Line
	10800 4000 10900 4000
Wire Wire Line
	10400 4000 10000 4000
Wire Wire Line
	10000 4000 10000 4400
Wire Wire Line
	10000 4400 9400 4400
Wire Wire Line
	9900 5700 9800 5700
Text GLabel 9800 5700 0    70   BiDi ~ 0
CLOCK_OUT
Wire Wire Line
	9900 6500 9800 6500
Text GLabel 9850 6500 0    70   BiDi ~ 0
GATE_OUT
Entry Wire Line
	5600 7800 5700 7900
Entry Wire Line
	5600 7700 5700 7800
Entry Wire Line
	5600 7600 5700 7700
Entry Wire Line
	5600 7500 5700 7600
$Comp
L module_tester-v02-eagle-import:74595N IC5
U 1 1 E57833A7
P 8900 4300
AR Path="/E57833A7" Ref="IC5"  Part="1" 
AR Path="/61BE1E5C/E57833A7" Ref="IC5"  Part="1" 
F 0 "IC5" H 8600 4825 59  0000 L BNN
F 1 "74595N" H 8600 3600 59  0001 L BNN
F 2 "module_tester-v02:DIL16" H 8900 4300 50  0001 C CNN
F 3 "" H 8900 4300 50  0001 C CNN
	1    8900 4300
	1    0    0    -1  
$EndComp
$Comp
L module_tester-v02-eagle-import:74595N IC5
U 2 1 E57833AB
P 1700 7600
AR Path="/E57833AB" Ref="IC5"  Part="2" 
AR Path="/61BE1E5C/E57833AB" Ref="IC5"  Part="2" 
F 0 "IC5" H 1675 7575 59  0000 L BNN
F 1 "74595N" H 1400 6900 59  0001 L BNN
F 2 "module_tester-v02:DIL16" H 1700 7600 50  0001 C CNN
F 3 "" H 1700 7600 50  0001 C CNN
	2    1700 7600
	1    0    0    -1  
$EndComp
$Comp
L module_tester-v02-eagle-import:GND #GND6
U 1 1 A07C0193
P 8300 5000
AR Path="/A07C0193" Ref="#GND6"  Part="1" 
AR Path="/61BE1E5C/A07C0193" Ref="#GND06"  Part="1" 
F 0 "#GND06" H 8300 5000 50  0001 C CNN
F 1 "GND" H 8200 4900 59  0000 L BNN
F 2 "" H 8300 5000 50  0001 C CNN
F 3 "" H 8300 5000 50  0001 C CNN
	1    8300 5000
	1    0    0    -1  
$EndComp
$Comp
L module_tester-v02-eagle-import:R-US_0204_7 R19
U 1 1 E4BB7DDF
P 10600 2500
AR Path="/E4BB7DDF" Ref="R19"  Part="1" 
AR Path="/61BE1E5C/E4BB7DDF" Ref="R19"  Part="1" 
F 0 "R19" H 10450 2559 59  0000 L BNN
F 1 "220" H 10750 2370 59  0000 L BNN
F 2 "module_tester-v02:0204_7" H 10600 2500 50  0001 C CNN
F 3 "" H 10600 2500 50  0001 C CNN
	1    10600 2500
	1    0    0    -1  
$EndComp
$Comp
L module_tester-v02-eagle-import:R-US_0204_7 R20
U 1 1 28014392
P 10600 2800
AR Path="/28014392" Ref="R20"  Part="1" 
AR Path="/61BE1E5C/28014392" Ref="R20"  Part="1" 
F 0 "R20" H 10450 2859 59  0000 L BNN
F 1 "220" H 10750 2670 59  0000 L BNN
F 2 "module_tester-v02:0204_7" H 10600 2800 50  0001 C CNN
F 3 "" H 10600 2800 50  0001 C CNN
	1    10600 2800
	1    0    0    -1  
$EndComp
$Comp
L module_tester-v02-eagle-import:R-US_0204_7 R21
U 1 1 103B8410
P 10600 3100
AR Path="/103B8410" Ref="R21"  Part="1" 
AR Path="/61BE1E5C/103B8410" Ref="R21"  Part="1" 
F 0 "R21" H 10450 3159 59  0000 L BNN
F 1 "220" H 10750 2970 59  0000 L BNN
F 2 "module_tester-v02:0204_7" H 10600 3100 50  0001 C CNN
F 3 "" H 10600 3100 50  0001 C CNN
	1    10600 3100
	1    0    0    -1  
$EndComp
$Comp
L module_tester-v02-eagle-import:R-US_0204_7 R22
U 1 1 C4CF8556
P 10600 3400
AR Path="/C4CF8556" Ref="R22"  Part="1" 
AR Path="/61BE1E5C/C4CF8556" Ref="R22"  Part="1" 
F 0 "R22" H 10450 3459 59  0000 L BNN
F 1 "220" H 10750 3270 59  0000 L BNN
F 2 "module_tester-v02:0204_7" H 10600 3400 50  0001 C CNN
F 3 "" H 10600 3400 50  0001 C CNN
	1    10600 3400
	1    0    0    -1  
$EndComp
$Comp
L module_tester-v02-eagle-import:LED3MM LED1
U 1 1 D5D4A691
P 11000 2500
AR Path="/D5D4A691" Ref="LED1"  Part="1" 
AR Path="/61BE1E5C/D5D4A691" Ref="LED1"  Part="1" 
F 0 "LED1" V 11140 2320 59  0000 L BNN
F 1 "LED3MM" V 11225 2320 59  0000 L BNN
F 2 "module_tester-v02:LED3MM" H 11000 2500 50  0001 C CNN
F 3 "" H 11000 2500 50  0001 C CNN
	1    11000 2500
	0    -1   -1   0   
$EndComp
$Comp
L module_tester-v02-eagle-import:LED3MM LED2
U 1 1 6A31474D
P 11000 2800
AR Path="/6A31474D" Ref="LED2"  Part="1" 
AR Path="/61BE1E5C/6A31474D" Ref="LED2"  Part="1" 
F 0 "LED2" V 11140 2620 59  0000 L BNN
F 1 "LED3MM" V 11225 2620 59  0000 L BNN
F 2 "module_tester-v02:LED3MM" H 11000 2800 50  0001 C CNN
F 3 "" H 11000 2800 50  0001 C CNN
	1    11000 2800
	0    -1   -1   0   
$EndComp
$Comp
L module_tester-v02-eagle-import:LED3MM LED3
U 1 1 57046BE5
P 11000 3100
AR Path="/57046BE5" Ref="LED3"  Part="1" 
AR Path="/61BE1E5C/57046BE5" Ref="LED3"  Part="1" 
F 0 "LED3" V 11140 2920 59  0000 L BNN
F 1 "LED3MM" V 11225 2920 59  0000 L BNN
F 2 "module_tester-v02:LED3MM" H 11000 3100 50  0001 C CNN
F 3 "" H 11000 3100 50  0001 C CNN
	1    11000 3100
	0    -1   -1   0   
$EndComp
$Comp
L module_tester-v02-eagle-import:LED3MM LED4
U 1 1 0D206A19
P 11000 3400
AR Path="/0D206A19" Ref="LED4"  Part="1" 
AR Path="/61BE1E5C/0D206A19" Ref="LED4"  Part="1" 
F 0 "LED4" V 11140 3220 59  0000 L BNN
F 1 "LED3MM" V 11225 3220 59  0000 L BNN
F 2 "module_tester-v02:LED3MM" H 11000 3400 50  0001 C CNN
F 3 "" H 11000 3400 50  0001 C CNN
	1    11000 3400
	0    -1   -1   0   
$EndComp
$Comp
L module_tester-v02-eagle-import:GND #GND1
U 1 1 DB8695AC
P 1900 8200
AR Path="/DB8695AC" Ref="#GND1"  Part="1" 
AR Path="/61BE1E5C/DB8695AC" Ref="#GND01"  Part="1" 
F 0 "#GND01" H 1900 8200 50  0001 C CNN
F 1 "GND" H 1800 8100 59  0000 L BNN
F 2 "" H 1900 8200 50  0001 C CNN
F 3 "" H 1900 8200 50  0001 C CNN
	1    1900 8200
	1    0    0    -1  
$EndComp
$Comp
L module_tester-v02-eagle-import:EC12E_SW SW1
U 1 1 8D8E9199
P 11100 1400
AR Path="/8D8E9199" Ref="SW1"  Part="1" 
AR Path="/61BE1E5C/8D8E9199" Ref="SW1"  Part="1" 
F 0 "SW1" H 11100 1400 50  0001 C CNN
F 1 "Encoder" V 11350 1400 42  0001 L BNN
F 2 "module_tester-v02:ALPS_EC12E_SW" H 11100 1400 50  0001 C CNN
F 3 "" H 11100 1400 50  0001 C CNN
	1    11100 1400
	0    -1   -1   0   
$EndComp
$Comp
L module_tester-v02-eagle-import:EC12E_SW SW1
U 2 1 8D8E9195
P 11000 1000
AR Path="/8D8E9195" Ref="SW1"  Part="2" 
AR Path="/61BE1E5C/8D8E9195" Ref="SW1"  Part="2" 
F 0 "SW1" H 11000 1000 50  0001 C CNN
F 1 "Encoder" H 10800 900 42  0001 L BNN
F 2 "module_tester-v02:ALPS_EC12E_SW" H 11000 1000 50  0001 C CNN
F 3 "" H 11000 1000 50  0001 C CNN
	2    11000 1000
	1    0    0    -1  
$EndComp
$Comp
L module_tester-v02-eagle-import:GND #GND10
U 1 1 845C69E3
P 11400 1500
AR Path="/845C69E3" Ref="#GND10"  Part="1" 
AR Path="/61BE1E5C/845C69E3" Ref="#GND010"  Part="1" 
F 0 "#GND010" H 11400 1500 50  0001 C CNN
F 1 "GND" H 11300 1400 59  0000 L BNN
F 2 "" H 11400 1500 50  0001 C CNN
F 3 "" H 11400 1500 50  0001 C CNN
	1    11400 1500
	1    0    0    -1  
$EndComp
$Comp
L module_tester-v02-eagle-import:GND #GND9
U 1 1 928DF91D
P 4700 7200
AR Path="/928DF91D" Ref="#GND9"  Part="1" 
AR Path="/61BE1E5C/928DF91D" Ref="#GND09"  Part="1" 
F 0 "#GND09" H 4700 7200 50  0001 C CNN
F 1 "GND" H 4600 7100 59  0000 L BNN
F 2 "" H 4700 7200 50  0001 C CNN
F 3 "" H 4700 7200 50  0001 C CNN
	1    4700 7200
	1    0    0    -1  
$EndComp
$Comp
L module_tester-v02-eagle-import:LCD_MODULE2X16 U$3
U 1 1 54307519
P 5800 7400
AR Path="/54307519" Ref="U$3"  Part="1" 
AR Path="/61BE1E5C/54307519" Ref="U$3"  Part="1" 
F 0 "U$3" H 5900 8320 59  0000 L BNN
F 1 "LCD_MODULE2X16" H 5900 6500 59  0000 L BNN
F 2 "module_tester-v02:LCD_MODULE_2X16" H 5800 7400 50  0001 C CNN
F 3 "" H 5800 7400 50  0001 C CNN
	1    5800 7400
	1    0    0    -1  
$EndComp
$Comp
L module_tester-v02-eagle-import:R-US_0204_7 R14
U 1 1 25AAC212
P 5400 8000
AR Path="/25AAC212" Ref="R14"  Part="1" 
AR Path="/61BE1E5C/25AAC212" Ref="R14"  Part="1" 
F 0 "R14" H 5250 8059 59  0000 L BNN
F 1 "0" H 5250 7870 59  0000 L BNN
F 2 "module_tester-v02:0204_7" H 5400 8000 50  0001 C CNN
F 3 "" H 5400 8000 50  0001 C CNN
	1    5400 8000
	1    0    0    -1  
$EndComp
$Comp
L module_tester-v02-eagle-import:GND #GND15
U 1 1 257B06B4
P 5700 8300
AR Path="/257B06B4" Ref="#GND15"  Part="1" 
AR Path="/61BE1E5C/257B06B4" Ref="#GND015"  Part="1" 
F 0 "#GND015" H 5700 8300 50  0001 C CNN
F 1 "GND" H 5600 8200 59  0000 L BNN
F 2 "" H 5700 8300 50  0001 C CNN
F 3 "" H 5700 8300 50  0001 C CNN
	1    5700 8300
	1    0    0    -1  
$EndComp
$Comp
L module_tester-v02-eagle-import:R-TRIMM3339P R8
U 1 1 1B403FD6
P 4700 6800
AR Path="/1B403FD6" Ref="R8"  Part="1" 
AR Path="/61BE1E5C/1B403FD6" Ref="R8"  Part="1" 
F 0 "R8" V 4465 6650 59  0000 L BNN
F 1 "5k" V 4550 6650 59  0000 L BNN
F 2 "module_tester-v02:RTRIM3339P" H 4700 6800 50  0001 C CNN
F 3 "" H 4700 6800 50  0001 C CNN
	1    4700 6800
	1    0    0    1   
$EndComp
$Comp
L module_tester-v02-eagle-import:LETTER_L #FRAME1
U 2 1 73DA64C6
P 7700 9000
AR Path="/73DA64C6" Ref="#FRAME1"  Part="2" 
AR Path="/61BE1E5C/73DA64C6" Ref="#FRAME1"  Part="2" 
F 0 "#FRAME1" H 7700 9000 50  0001 C CNN
F 1 "LETTER_L" H 7700 9000 50  0001 C CNN
F 2 "" H 7700 9000 50  0001 C CNN
F 3 "" H 7700 9000 50  0001 C CNN
	2    7700 9000
	1    0    0    -1  
$EndComp
$Comp
L module_tester-v02-eagle-import:C-US025-025X050 C21
U 1 1 09F0E208
P 2200 7600
AR Path="/09F0E208" Ref="C21"  Part="1" 
AR Path="/61BE1E5C/09F0E208" Ref="C21"  Part="1" 
F 0 "C21" H 2240 7625 59  0000 L BNN
F 1 "100n" H 2240 7435 59  0000 L BNN
F 2 "module_tester-v02:C025-025X050" H 2200 7600 50  0001 C CNN
F 3 "" H 2200 7600 50  0001 C CNN
	1    2200 7600
	1    0    0    -1  
$EndComp
$Comp
L module_tester-v02-eagle-import:C-US025-025X050 C17
U 1 1 383227E3
P 2500 7600
AR Path="/383227E3" Ref="C17"  Part="1" 
AR Path="/61BE1E5C/383227E3" Ref="C17"  Part="1" 
F 0 "C17" H 2540 7625 59  0000 L BNN
F 1 "100n" H 2540 7435 59  0000 L BNN
F 2 "module_tester-v02:C025-025X050" H 2500 7600 50  0001 C CNN
F 3 "" H 2500 7600 50  0001 C CNN
	1    2500 7600
	1    0    0    -1  
$EndComp
$Comp
L module_tester-v02-eagle-import:C-US025-025X050 C15
U 1 1 9DEF2EB6
P 2800 7600
AR Path="/9DEF2EB6" Ref="C15"  Part="1" 
AR Path="/61BE1E5C/9DEF2EB6" Ref="C15"  Part="1" 
F 0 "C15" H 2840 7625 59  0000 L BNN
F 1 "100n" H 2840 7435 59  0000 L BNN
F 2 "module_tester-v02:C025-025X050" H 2800 7600 50  0001 C CNN
F 3 "" H 2800 7600 50  0001 C CNN
	1    2800 7600
	1    0    0    -1  
$EndComp
$Comp
L module_tester-v02-eagle-import:GND #GND61
U 1 1 D91DE639
P 5000 7200
AR Path="/D91DE639" Ref="#GND61"  Part="1" 
AR Path="/61BE1E5C/D91DE639" Ref="#GND061"  Part="1" 
F 0 "#GND061" H 5000 7200 50  0001 C CNN
F 1 "GND" H 4900 7100 59  0000 L BNN
F 2 "" H 5000 7200 50  0001 C CNN
F 3 "" H 5000 7200 50  0001 C CNN
	1    5000 7200
	1    0    0    -1  
$EndComp
$Comp
L module_tester-v02-eagle-import:GND #GND62
U 1 1 F68AF8FF
P 5300 6700
AR Path="/F68AF8FF" Ref="#GND62"  Part="1" 
AR Path="/61BE1E5C/F68AF8FF" Ref="#GND062"  Part="1" 
F 0 "#GND062" H 5300 6700 50  0001 C CNN
F 1 "GND" H 5200 6600 59  0000 L BNN
F 2 "" H 5300 6700 50  0001 C CNN
F 3 "" H 5300 6700 50  0001 C CNN
	1    5300 6700
	1    0    0    -1  
$EndComp
$Comp
L module_tester-v02-eagle-import:FRAME_A_L #FRAME7
U 1 1 9CE31C40
P 900 9000
AR Path="/9CE31C40" Ref="#FRAME7"  Part="1" 
AR Path="/61BE1E5C/9CE31C40" Ref="#FRAME7"  Part="1" 
F 0 "#FRAME7" H 900 9000 50  0001 C CNN
F 1 "FRAME_A_L" H 900 9000 50  0001 C CNN
F 2 "" H 900 9000 50  0001 C CNN
F 3 "" H 900 9000 50  0001 C CNN
	1    900  9000
	1    0    0    -1  
$EndComp
$Comp
L module_tester-v02-eagle-import:FRAME_A_L #FRAME7
U 2 1 9CE31C4C
P 7700 9000
AR Path="/9CE31C4C" Ref="#FRAME7"  Part="2" 
AR Path="/61BE1E5C/9CE31C4C" Ref="#FRAME7"  Part="2" 
F 0 "#FRAME7" H 7700 9000 50  0001 C CNN
F 1 "FRAME_A_L" H 7700 9000 50  0001 C CNN
F 2 "" H 7700 9000 50  0001 C CNN
F 3 "" H 7700 9000 50  0001 C CNN
	2    7700 9000
	1    0    0    -1  
$EndComp
$Comp
L module_tester-v02-eagle-import:+5V #P+12
U 1 1 E517971B
P 1900 7000
AR Path="/E517971B" Ref="#P+12"  Part="1" 
AR Path="/61BE1E5C/E517971B" Ref="#P+012"  Part="1" 
F 0 "#P+012" H 1900 7000 50  0001 C CNN
F 1 "+5V" V 1800 6800 59  0000 L BNN
F 2 "" H 1900 7000 50  0001 C CNN
F 3 "" H 1900 7000 50  0001 C CNN
	1    1900 7000
	1    0    0    -1  
$EndComp
$Comp
L module_tester-v02-eagle-import:+5V #P+9
U 1 1 540F2EFD
P 5100 7800
AR Path="/540F2EFD" Ref="#P+9"  Part="1" 
AR Path="/61BE1E5C/540F2EFD" Ref="#P+09"  Part="1" 
F 0 "#P+09" H 5100 7800 50  0001 C CNN
F 1 "+5V" V 5000 7600 59  0000 L BNN
F 2 "" H 5100 7800 50  0001 C CNN
F 3 "" H 5100 7800 50  0001 C CNN
	1    5100 7800
	1    0    0    -1  
$EndComp
$Comp
L module_tester-v02-eagle-import:+5V #P+21
U 1 1 AF5215F4
P 4700 6400
AR Path="/AF5215F4" Ref="#P+21"  Part="1" 
AR Path="/61BE1E5C/AF5215F4" Ref="#P+021"  Part="1" 
F 0 "#P+021" H 4700 6400 50  0001 C CNN
F 1 "+5V" V 4600 6200 59  0000 L BNN
F 2 "" H 4700 6400 50  0001 C CNN
F 3 "" H 4700 6400 50  0001 C CNN
	1    4700 6400
	1    0    0    -1  
$EndComp
$Comp
L module_tester-v02-eagle-import:+5V #P+5
U 1 1 33ACA7EC
P 7800 4200
AR Path="/33ACA7EC" Ref="#P+5"  Part="1" 
AR Path="/61BE1E5C/33ACA7EC" Ref="#P+05"  Part="1" 
F 0 "#P+05" H 7800 4200 50  0001 C CNN
F 1 "+5V" V 7700 4000 59  0000 L BNN
F 2 "" H 7800 4200 50  0001 C CNN
F 3 "" H 7800 4200 50  0001 C CNN
	1    7800 4200
	0    -1   -1   0   
$EndComp
$Comp
L module_tester-v02-eagle-import:+5V #P+8
U 1 1 B54CCCBB
P 5600 6700
AR Path="/B54CCCBB" Ref="#P+8"  Part="1" 
AR Path="/61BE1E5C/B54CCCBB" Ref="#P+08"  Part="1" 
F 0 "#P+08" H 5600 6700 50  0001 C CNN
F 1 "+5V" V 5500 6500 59  0000 L BNN
F 2 "" H 5600 6700 50  0001 C CNN
F 3 "" H 5600 6700 50  0001 C CNN
	1    5600 6700
	0    -1   -1   0   
$EndComp
$Comp
L module_tester-v02-eagle-import:R-US_0204_7 R23
U 1 1 95CA20B9
P 10600 3700
AR Path="/95CA20B9" Ref="R23"  Part="1" 
AR Path="/61BE1E5C/95CA20B9" Ref="R23"  Part="1" 
F 0 "R23" H 10450 3759 59  0000 L BNN
F 1 "220" H 10750 3570 59  0000 L BNN
F 2 "module_tester-v02:0204_7" H 10600 3700 50  0001 C CNN
F 3 "" H 10600 3700 50  0001 C CNN
	1    10600 3700
	1    0    0    -1  
$EndComp
$Comp
L module_tester-v02-eagle-import:LED3MM LED5
U 1 1 9BD6F4E6
P 11000 3700
AR Path="/9BD6F4E6" Ref="LED5"  Part="1" 
AR Path="/61BE1E5C/9BD6F4E6" Ref="LED5"  Part="1" 
F 0 "LED5" V 11140 3520 59  0000 L BNN
F 1 "LED3MM" V 11225 3520 59  0000 L BNN
F 2 "module_tester-v02:LED3MM" H 11000 3700 50  0001 C CNN
F 3 "" H 11000 3700 50  0001 C CNN
	1    11000 3700
	0    -1   -1   0   
$EndComp
$Comp
L module_tester-v02-eagle-import:GND #GND20
U 1 1 2DF12463
P 11400 4200
AR Path="/2DF12463" Ref="#GND20"  Part="1" 
AR Path="/61BE1E5C/2DF12463" Ref="#GND020"  Part="1" 
F 0 "#GND020" H 11400 4200 50  0001 C CNN
F 1 "GND" H 11300 4100 59  0000 L BNN
F 2 "" H 11400 4200 50  0001 C CNN
F 3 "" H 11400 4200 50  0001 C CNN
	1    11400 4200
	1    0    0    -1  
$EndComp
$Comp
L module_tester-v02-eagle-import:R-US_0204_7 R25
U 1 1 E5996D3F
P 10100 5700
AR Path="/E5996D3F" Ref="R25"  Part="1" 
AR Path="/61BE1E5C/E5996D3F" Ref="R25"  Part="1" 
F 0 "R25" H 9950 5759 59  0000 L BNN
F 1 "220" H 10250 5570 59  0000 L BNN
F 2 "module_tester-v02:0204_7" H 10100 5700 50  0001 C CNN
F 3 "" H 10100 5700 50  0001 C CNN
	1    10100 5700
	1    0    0    -1  
$EndComp
$Comp
L module_tester-v02-eagle-import:R-US_0204_7 R27
U 1 1 15D55917
P 10100 6500
AR Path="/15D55917" Ref="R27"  Part="1" 
AR Path="/61BE1E5C/15D55917" Ref="R27"  Part="1" 
F 0 "R27" H 9950 6559 59  0000 L BNN
F 1 "220" H 10250 6370 59  0000 L BNN
F 2 "module_tester-v02:0204_7" H 10100 6500 50  0001 C CNN
F 3 "" H 10100 6500 50  0001 C CNN
	1    10100 6500
	1    0    0    -1  
$EndComp
$Comp
L module_tester-v02-eagle-import:GND #GND22
U 1 1 FB1CD9CF
P 10700 6100
AR Path="/FB1CD9CF" Ref="#GND22"  Part="1" 
AR Path="/61BE1E5C/FB1CD9CF" Ref="#GND022"  Part="1" 
F 0 "#GND022" H 10700 6100 50  0001 C CNN
F 1 "GND" H 10600 6000 59  0000 L BNN
F 2 "" H 10700 6100 50  0001 C CNN
F 3 "" H 10700 6100 50  0001 C CNN
	1    10700 6100
	1    0    0    -1  
$EndComp
$Comp
L module_tester-v02-eagle-import:GND #GND23
U 1 1 C7080FD3
P 10700 6900
AR Path="/C7080FD3" Ref="#GND23"  Part="1" 
AR Path="/61BE1E5C/C7080FD3" Ref="#GND023"  Part="1" 
F 0 "#GND023" H 10700 6900 50  0001 C CNN
F 1 "GND" H 10600 6800 59  0000 L BNN
F 2 "" H 10700 6900 50  0001 C CNN
F 3 "" H 10700 6900 50  0001 C CNN
	1    10700 6900
	1    0    0    -1  
$EndComp
$Comp
L module_tester-v02-eagle-import:R-US_0204_7 R18
U 1 1 FFE918C4
P 8200 1900
AR Path="/FFE918C4" Ref="R18"  Part="1" 
AR Path="/61BE1E5C/FFE918C4" Ref="R18"  Part="1" 
F 0 "R18" H 8050 1959 59  0000 L BNN
F 1 "100k" H 8050 1770 59  0000 L BNN
F 2 "module_tester-v02:0204_7" H 8200 1900 50  0001 C CNN
F 3 "" H 8200 1900 50  0001 C CNN
	1    8200 1900
	1    0    0    -1  
$EndComp
$Comp
L module_tester-v02-eagle-import:GND #GND31
U 1 1 E3033BC1
P 8700 2300
AR Path="/E3033BC1" Ref="#GND31"  Part="1" 
AR Path="/61BE1E5C/E3033BC1" Ref="#GND031"  Part="1" 
F 0 "#GND031" H 8700 2300 50  0001 C CNN
F 1 "GND" H 8600 2200 59  0000 L BNN
F 2 "" H 8700 2300 50  0001 C CNN
F 3 "" H 8700 2300 50  0001 C CNN
	1    8700 2300
	1    0    0    -1  
$EndComp
$Comp
L module_tester-v02-eagle-import:R-US_0204_7 R17
U 1 1 DB79B4F3
P 8700 1300
AR Path="/DB79B4F3" Ref="R17"  Part="1" 
AR Path="/61BE1E5C/DB79B4F3" Ref="R17"  Part="1" 
F 0 "R17" H 8550 1359 59  0000 L BNN
F 1 "10k" H 8550 1170 59  0000 L BNN
F 2 "module_tester-v02:0204_7" H 8700 1300 50  0001 C CNN
F 3 "" H 8700 1300 50  0001 C CNN
	1    8700 1300
	0    -1   -1   0   
$EndComp
$Comp
L module_tester-v02-eagle-import:GND #GND18
U 1 1 E0081D19
P 8000 2300
AR Path="/E0081D19" Ref="#GND18"  Part="1" 
AR Path="/61BE1E5C/E0081D19" Ref="#GND018"  Part="1" 
F 0 "#GND018" H 8000 2300 50  0001 C CNN
F 1 "GND" H 7900 2200 59  0000 L BNN
F 2 "" H 8000 2300 50  0001 C CNN
F 3 "" H 8000 2300 50  0001 C CNN
	1    8000 2300
	1    0    0    -1  
$EndComp
$Comp
L module_tester-v02-eagle-import:2N3904 Q1
U 1 1 7A211019
P 8600 1900
AR Path="/7A211019" Ref="Q1"  Part="1" 
AR Path="/61BE1E5C/7A211019" Ref="Q1"  Part="1" 
F 0 "Q1" H 8700 1900 59  0000 L BNN
F 1 "2N3904" H 8700 1800 59  0000 L BNN
F 2 "module_tester-v02:TO92-" H 8600 1900 50  0001 C CNN
F 3 "" H 8600 1900 50  0001 C CNN
	1    8600 1900
	1    0    0    -1  
$EndComp
$Comp
L module_tester-v02-eagle-import:MAB5SH X1
U 1 1 30C7993E
P 3600 1700
AR Path="/30C7993E" Ref="X1"  Part="1" 
AR Path="/61BE1E5C/30C7993E" Ref="X1"  Part="1" 
F 0 "X1" H 3200 2125 59  0000 L BNN
F 1 "MIDI" H 3600 2125 59  0000 L BNN
F 2 "module_tester-v02:MAB5SH" H 3600 1700 50  0001 C CNN
F 3 "" H 3600 1700 50  0001 C CNN
	1    3600 1700
	1    0    0    -1  
$EndComp
$Comp
L module_tester-v02-eagle-import:GND #GND12
U 1 1 A5F18D96
P 6200 2400
AR Path="/A5F18D96" Ref="#GND12"  Part="1" 
AR Path="/61BE1E5C/A5F18D96" Ref="#GND012"  Part="1" 
F 0 "#GND012" H 6200 2400 50  0001 C CNN
F 1 "GND" H 6100 2300 59  0000 L BNN
F 2 "" H 6200 2400 50  0001 C CNN
F 3 "" H 6200 2400 50  0001 C CNN
	1    6200 2400
	1    0    0    -1  
$EndComp
$Comp
L module_tester-v02-eagle-import:R-US_0204_7 R3
U 1 1 ABEDB9F7
P 4400 1800
AR Path="/ABEDB9F7" Ref="R3"  Part="1" 
AR Path="/61BE1E5C/ABEDB9F7" Ref="R3"  Part="1" 
F 0 "R3" H 4250 1859 59  0000 L BNN
F 1 "220" H 4250 1670 59  0000 L BNN
F 2 "module_tester-v02:0204_7" H 4400 1800 50  0001 C CNN
F 3 "" H 4400 1800 50  0001 C CNN
	1    4400 1800
	1    0    0    -1  
$EndComp
$Comp
L module_tester-v02-eagle-import:R-US_0204_7 R5
U 1 1 0764E48A
P 6300 1600
AR Path="/0764E48A" Ref="R5"  Part="1" 
AR Path="/61BE1E5C/0764E48A" Ref="R5"  Part="1" 
F 0 "R5" H 6150 1659 59  0000 L BNN
F 1 "10k" H 6150 1470 59  0000 L BNN
F 2 "module_tester-v02:0204_7" H 6300 1600 50  0001 C CNN
F 3 "" H 6300 1600 50  0001 C CNN
	1    6300 1600
	0    -1   -1   0   
$EndComp
$Comp
L module_tester-v02-eagle-import:DIODE-D-5 D1
U 1 1 8A755ED4
P 4700 2000
AR Path="/8A755ED4" Ref="D1"  Part="1" 
AR Path="/61BE1E5C/8A755ED4" Ref="D1"  Part="1" 
F 0 "D1" H 4800 2019 59  0000 L BNN
F 1 "1N4148" H 4800 1909 59  0000 L BNN
F 2 "module_tester-v02:D-5" H 4700 2000 50  0001 C CNN
F 3 "" H 4700 2000 50  0001 C CNN
	1    4700 2000
	0    -1   -1   0   
$EndComp
$Comp
L module_tester-v02-eagle-import:6N138 OK1
U 1 1 3E672664
P 5500 2000
AR Path="/3E672664" Ref="OK1"  Part="1" 
AR Path="/61BE1E5C/3E672664" Ref="OK1"  Part="1" 
F 0 "OK1" H 5125 2325 59  0000 L BNN
F 1 "6N137" H 5125 1600 59  0000 L BNN
F 2 "module_tester-v02:DIL08" H 5500 2000 50  0001 C CNN
F 3 "" H 5500 2000 50  0001 C CNN
	1    5500 2000
	1    0    0    -1  
$EndComp
$Comp
L module_tester-v02-eagle-import:+5V #P+6
U 1 1 B0F39303
P 6100 1100
AR Path="/B0F39303" Ref="#P+6"  Part="1" 
AR Path="/61BE1E5C/B0F39303" Ref="#P+06"  Part="1" 
F 0 "#P+06" H 6100 1100 50  0001 C CNN
F 1 "+5V" V 6000 900 59  0000 L BNN
F 2 "" H 6100 1100 50  0001 C CNN
F 3 "" H 6100 1100 50  0001 C CNN
	1    6100 1100
	1    0    0    -1  
$EndComp
$Comp
L module_tester-v02-eagle-import:40-XX S1
U 1 1 CEBFFD5E
P 2700 3600
AR Path="/CEBFFD5E" Ref="S1"  Part="1" 
AR Path="/61BE1E5C/CEBFFD5E" Ref="S1"  Part="1" 
F 0 "S1" V 2450 3500 59  0000 L BNN
F 1 "40-XX" V 2550 3725 59  0000 L BNN
F 2 "module_tester-v02:B3F-40XX" H 2700 3600 50  0001 C CNN
F 3 "" H 2700 3600 50  0001 C CNN
	1    2700 3600
	0    -1   1    0   
$EndComp
$Comp
L module_tester-v02-eagle-import:40-XX S2
U 1 1 F82F9BF5
P 2700 4000
AR Path="/F82F9BF5" Ref="S2"  Part="1" 
AR Path="/61BE1E5C/F82F9BF5" Ref="S2"  Part="1" 
F 0 "S2" V 2450 3900 59  0000 L BNN
F 1 "40-XX" V 2550 4125 59  0000 L BNN
F 2 "module_tester-v02:B3F-40XX" H 2700 4000 50  0001 C CNN
F 3 "" H 2700 4000 50  0001 C CNN
	1    2700 4000
	0    -1   1    0   
$EndComp
$Comp
L module_tester-v02-eagle-import:40-XX S3
U 1 1 2CB5445E
P 2700 4400
AR Path="/2CB5445E" Ref="S3"  Part="1" 
AR Path="/61BE1E5C/2CB5445E" Ref="S3"  Part="1" 
F 0 "S3" V 2450 4300 59  0000 L BNN
F 1 "40-XX" V 2550 4525 59  0000 L BNN
F 2 "module_tester-v02:B3F-40XX" H 2700 4400 50  0001 C CNN
F 3 "" H 2700 4400 50  0001 C CNN
	1    2700 4400
	0    -1   1    0   
$EndComp
$Comp
L module_tester-v02-eagle-import:40-XX S4
U 1 1 66765150
P 2700 4800
AR Path="/66765150" Ref="S4"  Part="1" 
AR Path="/61BE1E5C/66765150" Ref="S4"  Part="1" 
F 0 "S4" V 2450 4700 59  0000 L BNN
F 1 "40-XX" V 2550 4925 59  0000 L BNN
F 2 "module_tester-v02:B3F-40XX" H 2700 4800 50  0001 C CNN
F 3 "" H 2700 4800 50  0001 C CNN
	1    2700 4800
	0    -1   1    0   
$EndComp
$Comp
L module_tester-v02-eagle-import:40-XX S5
U 1 1 2CD42A27
P 2700 5200
AR Path="/2CD42A27" Ref="S5"  Part="1" 
AR Path="/61BE1E5C/2CD42A27" Ref="S5"  Part="1" 
F 0 "S5" V 2450 5100 59  0000 L BNN
F 1 "40-XX" V 2550 5325 59  0000 L BNN
F 2 "module_tester-v02:B3F-40XX" H 2700 5200 50  0001 C CNN
F 3 "" H 2700 5200 50  0001 C CNN
	1    2700 5200
	0    -1   1    0   
$EndComp
$Comp
L module_tester-v02-eagle-import:40-XX S6
U 1 1 739FB15A
P 2700 5600
AR Path="/739FB15A" Ref="S6"  Part="1" 
AR Path="/61BE1E5C/739FB15A" Ref="S6"  Part="1" 
F 0 "S6" V 2450 5500 59  0000 L BNN
F 1 "40-XX" V 2550 5725 59  0000 L BNN
F 2 "module_tester-v02:B3F-40XX" H 2700 5600 50  0001 C CNN
F 3 "" H 2700 5600 50  0001 C CNN
	1    2700 5600
	0    -1   1    0   
$EndComp
$Comp
L module_tester-v02-eagle-import:74165N IC6
U 1 1 9DF368B8
P 5600 4100
AR Path="/9DF368B8" Ref="IC6"  Part="1" 
AR Path="/61BE1E5C/9DF368B8" Ref="IC6"  Part="1" 
F 0 "IC6" H 5300 4825 59  0000 L BNN
F 1 "74HC165N" H 5300 3300 59  0001 L BNN
F 2 "module_tester-v02:DIL16" H 5600 4100 50  0001 C CNN
F 3 "" H 5600 4100 50  0001 C CNN
	1    5600 4100
	1    0    0    -1  
$EndComp
$Comp
L module_tester-v02-eagle-import:74165N IC6
U 2 1 9DF368B4
P 1900 7600
AR Path="/9DF368B4" Ref="IC6"  Part="2" 
AR Path="/61BE1E5C/9DF368B4" Ref="IC6"  Part="2" 
F 0 "IC6" H 1875 7575 59  0000 L BNN
F 1 "74HC165N" H 1600 6800 59  0001 L BNN
F 2 "module_tester-v02:DIL16" H 1900 7600 50  0001 C CNN
F 3 "" H 1900 7600 50  0001 C CNN
	2    1900 7600
	1    0    0    -1  
$EndComp
$Comp
L module_tester-v02-eagle-import:GND #GND11
U 1 1 19DA8D48
P 5000 5000
AR Path="/19DA8D48" Ref="#GND11"  Part="1" 
AR Path="/61BE1E5C/19DA8D48" Ref="#GND011"  Part="1" 
F 0 "#GND011" H 5000 5000 50  0001 C CNN
F 1 "GND" H 4900 4900 59  0000 L BNN
F 2 "" H 5000 5000 50  0001 C CNN
F 3 "" H 5000 5000 50  0001 C CNN
	1    5000 5000
	1    0    0    -1  
$EndComp
$Comp
L module_tester-v02-eagle-import:GND #GND28
U 1 1 0345B4CC
P 2400 5900
AR Path="/0345B4CC" Ref="#GND28"  Part="1" 
AR Path="/61BE1E5C/0345B4CC" Ref="#GND028"  Part="1" 
F 0 "#GND028" H 2400 5900 50  0001 C CNN
F 1 "GND" H 2300 5800 59  0000 L BNN
F 2 "" H 2400 5900 50  0001 C CNN
F 3 "" H 2400 5900 50  0001 C CNN
	1    2400 5900
	1    0    0    -1  
$EndComp
$Comp
L module_tester-v02-eagle-import:GND #GND29
U 1 1 BFC01DE5
P 2400 5500
AR Path="/BFC01DE5" Ref="#GND29"  Part="1" 
AR Path="/61BE1E5C/BFC01DE5" Ref="#GND029"  Part="1" 
F 0 "#GND029" H 2400 5500 50  0001 C CNN
F 1 "GND" H 2300 5400 59  0000 L BNN
F 2 "" H 2400 5500 50  0001 C CNN
F 3 "" H 2400 5500 50  0001 C CNN
	1    2400 5500
	1    0    0    -1  
$EndComp
$Comp
L module_tester-v02-eagle-import:GND #GND30
U 1 1 E66C1352
P 2400 5100
AR Path="/E66C1352" Ref="#GND30"  Part="1" 
AR Path="/61BE1E5C/E66C1352" Ref="#GND030"  Part="1" 
F 0 "#GND030" H 2400 5100 50  0001 C CNN
F 1 "GND" H 2300 5000 59  0000 L BNN
F 2 "" H 2400 5100 50  0001 C CNN
F 3 "" H 2400 5100 50  0001 C CNN
	1    2400 5100
	1    0    0    -1  
$EndComp
$Comp
L module_tester-v02-eagle-import:GND #GND16
U 1 1 99D4D269
P 2400 4700
AR Path="/99D4D269" Ref="#GND16"  Part="1" 
AR Path="/61BE1E5C/99D4D269" Ref="#GND016"  Part="1" 
F 0 "#GND016" H 2400 4700 50  0001 C CNN
F 1 "GND" H 2300 4600 59  0000 L BNN
F 2 "" H 2400 4700 50  0001 C CNN
F 3 "" H 2400 4700 50  0001 C CNN
	1    2400 4700
	1    0    0    -1  
$EndComp
$Comp
L module_tester-v02-eagle-import:GND #GND32
U 1 1 BDD76BF8
P 2400 3900
AR Path="/BDD76BF8" Ref="#GND32"  Part="1" 
AR Path="/61BE1E5C/BDD76BF8" Ref="#GND032"  Part="1" 
F 0 "#GND032" H 2400 3900 50  0001 C CNN
F 1 "GND" H 2300 3800 59  0000 L BNN
F 2 "" H 2400 3900 50  0001 C CNN
F 3 "" H 2400 3900 50  0001 C CNN
	1    2400 3900
	1    0    0    -1  
$EndComp
$Comp
L module_tester-v02-eagle-import:GND #GND33
U 1 1 8D923520
P 2400 4300
AR Path="/8D923520" Ref="#GND33"  Part="1" 
AR Path="/61BE1E5C/8D923520" Ref="#GND033"  Part="1" 
F 0 "#GND033" H 2400 4300 50  0001 C CNN
F 1 "GND" H 2300 4200 59  0000 L BNN
F 2 "" H 2400 4300 50  0001 C CNN
F 3 "" H 2400 4300 50  0001 C CNN
	1    2400 4300
	1    0    0    -1  
$EndComp
$Comp
L module_tester-v02-eagle-import:+5V #P+7
U 1 1 BC2DCEA9
P 4200 2700
AR Path="/BC2DCEA9" Ref="#P+7"  Part="1" 
AR Path="/61BE1E5C/BC2DCEA9" Ref="#P+07"  Part="1" 
F 0 "#P+07" H 4200 2700 50  0001 C CNN
F 1 "+5V" V 4100 2500 59  0000 L BNN
F 2 "" H 4200 2700 50  0001 C CNN
F 3 "" H 4200 2700 50  0001 C CNN
	1    4200 2700
	1    0    0    -1  
$EndComp
$Comp
L module_tester-v02-eagle-import:R-US_0204_7 R24
U 1 1 23EDF6DF
P 10600 4000
AR Path="/23EDF6DF" Ref="R24"  Part="1" 
AR Path="/61BE1E5C/23EDF6DF" Ref="R24"  Part="1" 
F 0 "R24" H 10450 4059 59  0000 L BNN
F 1 "220" H 10750 3870 59  0000 L BNN
F 2 "module_tester-v02:0204_7" H 10600 4000 50  0001 C CNN
F 3 "" H 10600 4000 50  0001 C CNN
	1    10600 4000
	1    0    0    -1  
$EndComp
$Comp
L module_tester-v02-eagle-import:LED3MM LED6
U 1 1 3A04D24D
P 11000 4000
AR Path="/3A04D24D" Ref="LED6"  Part="1" 
AR Path="/61BE1E5C/3A04D24D" Ref="LED6"  Part="1" 
F 0 "LED6" V 11140 3820 59  0000 L BNN
F 1 "LED3MM" V 11225 3820 59  0000 L BNN
F 2 "module_tester-v02:LED3MM" H 11000 4000 50  0001 C CNN
F 3 "" H 11000 4000 50  0001 C CNN
	1    11000 4000
	0    -1   -1   0   
$EndComp
$Comp
L module_tester-v02-eagle-import:G06R RN1
U 1 1 00558C30
P 4500 3300
AR Path="/00558C30" Ref="RN1"  Part="1" 
AR Path="/61BE1E5C/00558C30" Ref="RN1"  Part="1" 
F 0 "RN1" H 4300 3650 59  0000 L BNN
F 1 "G06R" H 4300 3575 59  0000 L BNN
F 2 "module_tester-v02:SIL7" H 4500 3300 50  0001 C CNN
F 3 "" H 4500 3300 50  0001 C CNN
	1    4500 3300
	1    0    0    -1  
$EndComp
$Comp
L module_tester-v02-eagle-import:+5V #P+11
U 1 1 FBD5C941
P 8700 900
AR Path="/FBD5C941" Ref="#P+11"  Part="1" 
AR Path="/61BE1E5C/FBD5C941" Ref="#P+011"  Part="1" 
F 0 "#P+011" H 8700 900 50  0001 C CNN
F 1 "+5V" V 8600 700 59  0000 L BNN
F 2 "" H 8700 900 50  0001 C CNN
F 3 "" H 8700 900 50  0001 C CNN
	1    8700 900 
	1    0    0    -1  
$EndComp
$Comp
L module_tester-v02-eagle-import:C-US025-025X050 C2
U 1 1 69098DAB
P 3100 7600
AR Path="/69098DAB" Ref="C2"  Part="1" 
AR Path="/61BE1E5C/69098DAB" Ref="C2"  Part="1" 
F 0 "C2" H 3140 7625 59  0000 L BNN
F 1 "100n" H 3140 7435 59  0000 L BNN
F 2 "module_tester-v02:C025-025X050" H 3100 7600 50  0001 C CNN
F 3 "" H 3100 7600 50  0001 C CNN
	1    3100 7600
	1    0    0    -1  
$EndComp
$Comp
L module_tester-v02-eagle-import:PJ301_THONKICONN6 J10
U 1 1 A8F50699
P 7700 2000
AR Path="/A8F50699" Ref="J10"  Part="1" 
AR Path="/61BE1E5C/A8F50699" Ref="J10"  Part="1" 
F 0 "J10" H 7600 2160 59  0000 L BNN
F 1 "PJ301_THONKICONN6" H 7700 2000 50  0001 C CNN
F 2 "module_tester-v02:WQP_PJ_301M6" H 7700 2000 50  0001 C CNN
F 3 "" H 7700 2000 50  0001 C CNN
	1    7700 2000
	-1   0    0    -1  
$EndComp
$Comp
L module_tester-v02-eagle-import:PJ301_THONKICONN6 J1
U 1 1 2CE6A523
P 11000 5800
AR Path="/2CE6A523" Ref="J1"  Part="1" 
AR Path="/61BE1E5C/2CE6A523" Ref="J1"  Part="1" 
F 0 "J1" H 10900 5960 59  0000 L BNN
F 1 "PJ301_THONKICONN6" H 11000 5800 50  0001 C CNN
F 2 "module_tester-v02:WQP_PJ_301M6" H 11000 5800 50  0001 C CNN
F 3 "" H 11000 5800 50  0001 C CNN
	1    11000 5800
	1    0    0    -1  
$EndComp
$Comp
L module_tester-v02-eagle-import:PJ301_THONKICONN6 J2
U 1 1 F2D55355
P 11000 6600
AR Path="/F2D55355" Ref="J2"  Part="1" 
AR Path="/61BE1E5C/F2D55355" Ref="J2"  Part="1" 
F 0 "J2" H 10900 6760 59  0000 L BNN
F 1 "PJ301_THONKICONN6" H 11000 6600 50  0001 C CNN
F 2 "module_tester-v02:WQP_PJ_301M6" H 11000 6600 50  0001 C CNN
F 3 "" H 11000 6600 50  0001 C CNN
	1    11000 6600
	1    0    0    -1  
$EndComp
Text Notes 7800 7800 0    127  ~ 25
Peripherals / UI
Text Notes 7800 8000 0    85   ~ 0
Émilie Gillet, 2012. cc-by-sa
$EndSCHEMATC
