EESchema Schematic File Version 4
EELAYER 30 0
EELAYER END
$Descr A4 11693 8268
encoding utf-8
Sheet 1 5
Title ""
Date ""
Rev ""
Comp ""
Comment1 ""
Comment2 ""
Comment3 ""
Comment4 ""
$EndDescr
$Sheet
S 1000 1000 500  150 
U 61BE1D02
F0 "module_tester-v02_1" 50
F1 "module_tester-v02_1.sch" 50
$EndSheet
$Sheet
S 3000 1000 500  150 
U 61BE1E5C
F0 "module_tester-v02_2" 50
F1 "module_tester-v02_2.sch" 50
$EndSheet
$Sheet
S 5000 1000 500  150 
U 61BE22D1
F0 "module_tester-v02_3" 50
F1 "module_tester-v02_3.sch" 50
$EndSheet
$Sheet
S 7000 1000 500  150 
U 61BE26B0
F0 "module_tester-v02_4" 50
F1 "module_tester-v02_4.sch" 50
$EndSheet
$EndSCHEMATC
