(kicad_sch (version 20211123) (generator eeschema)

  (uuid 20caf6d2-76a7-497e-ac56-f6d31eb9027b)

  (paper "A4")

  (lib_symbols
  )


  (sheet (at 25.4 25.4) (size 12.7 3.81) (fields_autoplaced)
    (stroke (width 0) (type solid) (color 0 0 0 0))
    (fill (color 0 0 0 0.0000))
    (uuid 00000000-0000-0000-0000-0000611a7f6e)
    (property "Sheet name" "Main MCU" (id 0) (at 25.4 24.6884 0)
      (effects (font (size 1.27 1.27)) (justify left bottom))
    )
    (property "Sheet file" "module_tester-v02_1.kicad_sch" (id 1) (at 25.4 29.7946 0)
      (effects (font (size 1.27 1.27)) (justify left top))
    )
  )

  (sheet (at 76.2 25.4) (size 12.7 3.81) (fields_autoplaced)
    (stroke (width 0) (type solid) (color 0 0 0 0))
    (fill (color 0 0 0 0.0000))
    (uuid 00000000-0000-0000-0000-0000611a80c8)
    (property "Sheet name" "Peripherals / UI" (id 0) (at 76.2 24.6884 0)
      (effects (font (size 1.27 1.27)) (justify left bottom))
    )
    (property "Sheet file" "module_tester-v02_2.kicad_sch" (id 1) (at 76.2 29.7946 0)
      (effects (font (size 1.27 1.27)) (justify left top))
    )
  )

  (sheet (at 127 25.4) (size 12.7 3.81) (fields_autoplaced)
    (stroke (width 0) (type solid) (color 0 0 0 0))
    (fill (color 0 0 0 0.0000))
    (uuid 00000000-0000-0000-0000-0000611a853d)
    (property "Sheet name" "AD and DA" (id 0) (at 127 24.6884 0)
      (effects (font (size 1.27 1.27)) (justify left bottom))
    )
    (property "Sheet file" "module_tester-v02_3.kicad_sch" (id 1) (at 127 29.7946 0)
      (effects (font (size 1.27 1.27)) (justify left top))
    )
  )

  (sheet (at 177.8 25.4) (size 12.7 3.81) (fields_autoplaced)
    (stroke (width 0) (type solid) (color 0 0 0 0))
    (fill (color 0 0 0 0.0000))
    (uuid 00000000-0000-0000-0000-0000611a891c)
    (property "Sheet name" "Power supply" (id 0) (at 177.8 24.6884 0)
      (effects (font (size 1.27 1.27)) (justify left bottom))
    )
    (property "Sheet file" "module_tester-v02_4.kicad_sch" (id 1) (at 177.8 29.7946 0)
      (effects (font (size 1.27 1.27)) (justify left top))
    )
  )

  (sheet_instances
    (path "/" (page "1"))
    (path "/00000000-0000-0000-0000-0000611a7f6e" (page "2"))
    (path "/00000000-0000-0000-0000-0000611a80c8" (page "3"))
    (path "/00000000-0000-0000-0000-0000611a853d" (page "4"))
    (path "/00000000-0000-0000-0000-0000611a891c" (page "5"))
  )

  (symbol_instances
    (path "/00000000-0000-0000-0000-0000611a891c/1cdadf56-a878-4531-a971-ac211e139d1f"
      (reference "#FLG01") (unit 1) (value "PWR_FLAG") (footprint "")
    )
    (path "/00000000-0000-0000-0000-0000611a891c/481d80e9-1966-4999-9995-f8f310824542"
      (reference "#FLG02") (unit 1) (value "PWR_FLAG") (footprint "")
    )
    (path "/00000000-0000-0000-0000-0000611a891c/49c0d2c5-1143-4ad4-9065-ceb4b9f15dc4"
      (reference "#FLG03") (unit 1) (value "PWR_FLAG") (footprint "")
    )
    (path "/00000000-0000-0000-0000-0000611a891c/35fbd58d-bc2b-46c3-81a9-fef719e9661b"
      (reference "#FLG04") (unit 1) (value "PWR_FLAG") (footprint "")
    )
    (path "/00000000-0000-0000-0000-0000611a80c8/a2301796-5b5d-4c73-afcb-0b921a38d43e"
      (reference "#FLG0101") (unit 1) (value "PWR_FLAG") (footprint "")
    )
    (path "/00000000-0000-0000-0000-0000611a80c8/00000000-0000-0000-0000-000073da64c6"
      (reference "#FRAME1") (unit 2) (value "LETTER_L") (footprint "")
    )
    (path "/00000000-0000-0000-0000-0000611a853d/00000000-0000-0000-0000-0000f8e7202b"
      (reference "#FRAME3") (unit 2) (value "LETTER_L") (footprint "")
    )
    (path "/00000000-0000-0000-0000-0000611a891c/00000000-0000-0000-0000-0000b998442f"
      (reference "#FRAME4") (unit 2) (value "LETTER_L") (footprint "")
    )
    (path "/00000000-0000-0000-0000-0000611a7f6e/00000000-0000-0000-0000-0000fd6ee4a8"
      (reference "#FRAME5") (unit 1) (value "FRAME_A_L") (footprint "")
    )
    (path "/00000000-0000-0000-0000-0000611a7f6e/00000000-0000-0000-0000-0000fd6ee4a4"
      (reference "#FRAME5") (unit 2) (value "FRAME_A_L") (footprint "")
    )
    (path "/00000000-0000-0000-0000-0000611a7f6e/00000000-0000-0000-0000-000070d35453"
      (reference "#FRAME6") (unit 2) (value "LETTER_L") (footprint "")
    )
    (path "/00000000-0000-0000-0000-0000611a80c8/00000000-0000-0000-0000-00009ce31c40"
      (reference "#FRAME7") (unit 1) (value "FRAME_A_L") (footprint "")
    )
    (path "/00000000-0000-0000-0000-0000611a80c8/00000000-0000-0000-0000-00009ce31c4c"
      (reference "#FRAME7") (unit 2) (value "FRAME_A_L") (footprint "")
    )
    (path "/00000000-0000-0000-0000-0000611a853d/00000000-0000-0000-0000-000041b3b3d2"
      (reference "#FRAME9") (unit 1) (value "FRAME_A_L") (footprint "")
    )
    (path "/00000000-0000-0000-0000-0000611a853d/00000000-0000-0000-0000-000041b3b3de"
      (reference "#FRAME9") (unit 2) (value "FRAME_A_L") (footprint "")
    )
    (path "/00000000-0000-0000-0000-0000611a891c/00000000-0000-0000-0000-0000cc7de888"
      (reference "#FRAME10") (unit 1) (value "FRAME_A_L") (footprint "")
    )
    (path "/00000000-0000-0000-0000-0000611a891c/00000000-0000-0000-0000-0000cc7de884"
      (reference "#FRAME10") (unit 2) (value "FRAME_A_L") (footprint "")
    )
    (path "/00000000-0000-0000-0000-0000611a80c8/00000000-0000-0000-0000-0000db8695ac"
      (reference "#GND01") (unit 1) (value "GND") (footprint "")
    )
    (path "/00000000-0000-0000-0000-0000611a853d/00000000-0000-0000-0000-000013a376ec"
      (reference "#GND02") (unit 1) (value "GND") (footprint "")
    )
    (path "/00000000-0000-0000-0000-0000611a7f6e/00000000-0000-0000-0000-00007679bdcc"
      (reference "#GND03") (unit 1) (value "GND") (footprint "")
    )
    (path "/00000000-0000-0000-0000-0000611a853d/00000000-0000-0000-0000-0000d896219b"
      (reference "#GND04") (unit 1) (value "GND") (footprint "")
    )
    (path "/00000000-0000-0000-0000-0000611a7f6e/00000000-0000-0000-0000-0000ef27308a"
      (reference "#GND05") (unit 1) (value "GND") (footprint "")
    )
    (path "/00000000-0000-0000-0000-0000611a80c8/00000000-0000-0000-0000-0000a07c0193"
      (reference "#GND06") (unit 1) (value "GND") (footprint "")
    )
    (path "/00000000-0000-0000-0000-0000611a853d/00000000-0000-0000-0000-00009cde76ef"
      (reference "#GND07") (unit 1) (value "GND") (footprint "")
    )
    (path "/00000000-0000-0000-0000-0000611a853d/00000000-0000-0000-0000-0000df24f9e8"
      (reference "#GND08") (unit 1) (value "GND") (footprint "")
    )
    (path "/00000000-0000-0000-0000-0000611a80c8/00000000-0000-0000-0000-0000928df91d"
      (reference "#GND09") (unit 1) (value "GND") (footprint "")
    )
    (path "/00000000-0000-0000-0000-0000611a80c8/00000000-0000-0000-0000-0000845c69e3"
      (reference "#GND010") (unit 1) (value "GND") (footprint "")
    )
    (path "/00000000-0000-0000-0000-0000611a80c8/00000000-0000-0000-0000-000019da8d48"
      (reference "#GND011") (unit 1) (value "GND") (footprint "")
    )
    (path "/00000000-0000-0000-0000-0000611a80c8/00000000-0000-0000-0000-0000a5f18d96"
      (reference "#GND012") (unit 1) (value "GND") (footprint "")
    )
    (path "/00000000-0000-0000-0000-0000611a7f6e/00000000-0000-0000-0000-00009e3d6951"
      (reference "#GND013") (unit 1) (value "GND") (footprint "")
    )
    (path "/00000000-0000-0000-0000-0000611a7f6e/00000000-0000-0000-0000-0000109f320a"
      (reference "#GND014") (unit 1) (value "GND") (footprint "")
    )
    (path "/00000000-0000-0000-0000-0000611a80c8/00000000-0000-0000-0000-0000257b06b4"
      (reference "#GND015") (unit 1) (value "GND") (footprint "")
    )
    (path "/00000000-0000-0000-0000-0000611a80c8/00000000-0000-0000-0000-000099d4d269"
      (reference "#GND016") (unit 1) (value "GND") (footprint "")
    )
    (path "/00000000-0000-0000-0000-0000611a7f6e/00000000-0000-0000-0000-00000a5a0ac8"
      (reference "#GND017") (unit 1) (value "GND") (footprint "")
    )
    (path "/00000000-0000-0000-0000-0000611a80c8/00000000-0000-0000-0000-0000e0081d19"
      (reference "#GND018") (unit 1) (value "GND") (footprint "")
    )
    (path "/00000000-0000-0000-0000-0000611a853d/00000000-0000-0000-0000-000048b3ebd8"
      (reference "#GND019") (unit 1) (value "GND") (footprint "")
    )
    (path "/00000000-0000-0000-0000-0000611a80c8/00000000-0000-0000-0000-00002df12463"
      (reference "#GND020") (unit 1) (value "GND") (footprint "")
    )
    (path "/00000000-0000-0000-0000-0000611a7f6e/00000000-0000-0000-0000-0000cf593dc2"
      (reference "#GND021") (unit 1) (value "GND") (footprint "")
    )
    (path "/00000000-0000-0000-0000-0000611a80c8/00000000-0000-0000-0000-0000fb1cd9cf"
      (reference "#GND022") (unit 1) (value "GND") (footprint "")
    )
    (path "/00000000-0000-0000-0000-0000611a80c8/00000000-0000-0000-0000-0000c7080fd3"
      (reference "#GND023") (unit 1) (value "GND") (footprint "")
    )
    (path "/00000000-0000-0000-0000-0000611a853d/00000000-0000-0000-0000-0000664b2fae"
      (reference "#GND024") (unit 1) (value "GND") (footprint "")
    )
    (path "/00000000-0000-0000-0000-0000611a853d/00000000-0000-0000-0000-00002ee633c3"
      (reference "#GND025") (unit 1) (value "GND") (footprint "")
    )
    (path "/00000000-0000-0000-0000-0000611a853d/00000000-0000-0000-0000-00009e0685e6"
      (reference "#GND026") (unit 1) (value "GND") (footprint "")
    )
    (path "/00000000-0000-0000-0000-0000611a853d/00000000-0000-0000-0000-0000419d9c11"
      (reference "#GND027") (unit 1) (value "GND") (footprint "")
    )
    (path "/00000000-0000-0000-0000-0000611a80c8/00000000-0000-0000-0000-00000345b4cc"
      (reference "#GND028") (unit 1) (value "GND") (footprint "")
    )
    (path "/00000000-0000-0000-0000-0000611a80c8/00000000-0000-0000-0000-0000bfc01de5"
      (reference "#GND029") (unit 1) (value "GND") (footprint "")
    )
    (path "/00000000-0000-0000-0000-0000611a80c8/00000000-0000-0000-0000-0000e66c1352"
      (reference "#GND030") (unit 1) (value "GND") (footprint "")
    )
    (path "/00000000-0000-0000-0000-0000611a80c8/00000000-0000-0000-0000-0000e3033bc1"
      (reference "#GND031") (unit 1) (value "GND") (footprint "")
    )
    (path "/00000000-0000-0000-0000-0000611a80c8/00000000-0000-0000-0000-0000bdd76bf8"
      (reference "#GND032") (unit 1) (value "GND") (footprint "")
    )
    (path "/00000000-0000-0000-0000-0000611a80c8/00000000-0000-0000-0000-00008d923520"
      (reference "#GND033") (unit 1) (value "GND") (footprint "")
    )
    (path "/00000000-0000-0000-0000-0000611a853d/00000000-0000-0000-0000-00000fd0c583"
      (reference "#GND034") (unit 1) (value "GND") (footprint "")
    )
    (path "/00000000-0000-0000-0000-0000611a853d/00000000-0000-0000-0000-0000cf03c53c"
      (reference "#GND035") (unit 1) (value "GND") (footprint "")
    )
    (path "/00000000-0000-0000-0000-0000611a891c/00000000-0000-0000-0000-0000397f6efb"
      (reference "#GND036") (unit 1) (value "GND") (footprint "")
    )
    (path "/00000000-0000-0000-0000-0000611a853d/00000000-0000-0000-0000-00007cfe796d"
      (reference "#GND037") (unit 1) (value "GND") (footprint "")
    )
    (path "/00000000-0000-0000-0000-0000611a891c/00000000-0000-0000-0000-00009c9b1271"
      (reference "#GND038") (unit 1) (value "GND") (footprint "")
    )
    (path "/00000000-0000-0000-0000-0000611a891c/9529b36d-f668-4424-ac35-7e8a102d3709"
      (reference "#GND039") (unit 1) (value "GND") (footprint "")
    )
    (path "/00000000-0000-0000-0000-0000611a853d/00000000-0000-0000-0000-0000c4e41bbe"
      (reference "#GND042") (unit 1) (value "GND") (footprint "")
    )
    (path "/00000000-0000-0000-0000-0000611a853d/00000000-0000-0000-0000-00001165f8f0"
      (reference "#GND044") (unit 1) (value "GND") (footprint "")
    )
    (path "/00000000-0000-0000-0000-0000611a891c/00000000-0000-0000-0000-00009e0b3a99"
      (reference "#GND045") (unit 1) (value "GND") (footprint "")
    )
    (path "/00000000-0000-0000-0000-0000611a853d/00000000-0000-0000-0000-0000f28bf559"
      (reference "#GND054") (unit 1) (value "GND") (footprint "")
    )
    (path "/00000000-0000-0000-0000-0000611a80c8/00000000-0000-0000-0000-0000d91de639"
      (reference "#GND061") (unit 1) (value "GND") (footprint "")
    )
    (path "/00000000-0000-0000-0000-0000611a80c8/00000000-0000-0000-0000-0000f68af8ff"
      (reference "#GND062") (unit 1) (value "GND") (footprint "")
    )
    (path "/00000000-0000-0000-0000-0000611a891c/00000000-0000-0000-0000-000091f00aff"
      (reference "#GND082") (unit 1) (value "GND") (footprint "")
    )
    (path "/00000000-0000-0000-0000-0000611a891c/00000000-0000-0000-0000-0000247fd0cc"
      (reference "#GND085") (unit 1) (value "GND") (footprint "")
    )
    (path "/00000000-0000-0000-0000-0000611a853d/00000000-0000-0000-0000-0000bcdf72c5"
      (reference "#P+01") (unit 1) (value "+5V") (footprint "")
    )
    (path "/00000000-0000-0000-0000-0000611a7f6e/00000000-0000-0000-0000-0000339de9d3"
      (reference "#P+02") (unit 1) (value "+5V") (footprint "")
    )
    (path "/00000000-0000-0000-0000-0000611a853d/00000000-0000-0000-0000-000000f05df6"
      (reference "#P+03") (unit 1) (value "+5V") (footprint "")
    )
    (path "/00000000-0000-0000-0000-0000611a7f6e/00000000-0000-0000-0000-0000a7fdb2d8"
      (reference "#P+04") (unit 1) (value "+5V") (footprint "")
    )
    (path "/00000000-0000-0000-0000-0000611a80c8/00000000-0000-0000-0000-000033aca7ec"
      (reference "#P+05") (unit 1) (value "+5V") (footprint "")
    )
    (path "/00000000-0000-0000-0000-0000611a80c8/00000000-0000-0000-0000-0000b0f39303"
      (reference "#P+06") (unit 1) (value "+5V") (footprint "")
    )
    (path "/00000000-0000-0000-0000-0000611a80c8/00000000-0000-0000-0000-0000bc2dcea9"
      (reference "#P+07") (unit 1) (value "+5V") (footprint "")
    )
    (path "/00000000-0000-0000-0000-0000611a80c8/00000000-0000-0000-0000-0000b54cccbb"
      (reference "#P+08") (unit 1) (value "+5V") (footprint "")
    )
    (path "/00000000-0000-0000-0000-0000611a80c8/00000000-0000-0000-0000-0000540f2efd"
      (reference "#P+09") (unit 1) (value "+5V") (footprint "")
    )
    (path "/00000000-0000-0000-0000-0000611a7f6e/00000000-0000-0000-0000-000099cc31be"
      (reference "#P+010") (unit 1) (value "+5V") (footprint "")
    )
    (path "/00000000-0000-0000-0000-0000611a80c8/00000000-0000-0000-0000-0000fbd5c941"
      (reference "#P+011") (unit 1) (value "+5V") (footprint "")
    )
    (path "/00000000-0000-0000-0000-0000611a80c8/00000000-0000-0000-0000-0000e517971b"
      (reference "#P+012") (unit 1) (value "+5V") (footprint "")
    )
    (path "/00000000-0000-0000-0000-0000611a853d/00000000-0000-0000-0000-00009b33cc1c"
      (reference "#P+013") (unit 1) (value "+5V") (footprint "")
    )
    (path "/00000000-0000-0000-0000-0000611a891c/00000000-0000-0000-0000-0000a9b0eced"
      (reference "#P+014") (unit 1) (value "VCC") (footprint "")
    )
    (path "/00000000-0000-0000-0000-0000611a891c/00000000-0000-0000-0000-0000e802e752"
      (reference "#P+015") (unit 1) (value "+5V") (footprint "")
    )
    (path "/00000000-0000-0000-0000-0000611a891c/00000000-0000-0000-0000-0000483164f1"
      (reference "#P+016") (unit 1) (value "VCC") (footprint "")
    )
    (path "/00000000-0000-0000-0000-0000611a891c/00000000-0000-0000-0000-0000e83f5dea"
      (reference "#P+017") (unit 1) (value "VCC") (footprint "")
    )
    (path "/00000000-0000-0000-0000-0000611a891c/2c76b3bc-2926-433b-8ff3-1758866db0fd"
      (reference "#P+018") (unit 1) (value "+5V") (footprint "")
    )
    (path "/00000000-0000-0000-0000-0000611a891c/57b23186-c531-4d69-9e13-ae6ef9372d64"
      (reference "#P+019") (unit 1) (value "VCC") (footprint "")
    )
    (path "/00000000-0000-0000-0000-0000611a80c8/00000000-0000-0000-0000-0000af5215f4"
      (reference "#P+021") (unit 1) (value "+5V") (footprint "")
    )
    (path "/00000000-0000-0000-0000-0000611a891c/00000000-0000-0000-0000-00003f3fbe72"
      (reference "#P+023") (unit 1) (value "+5V") (footprint "")
    )
    (path "/00000000-0000-0000-0000-0000611a853d/00000000-0000-0000-0000-0000e6eda88f"
      (reference "#P+028") (unit 1) (value "VCC") (footprint "")
    )
    (path "/00000000-0000-0000-0000-0000611a891c/00000000-0000-0000-0000-0000f4c2cab7"
      (reference "#P+029") (unit 1) (value "VCC") (footprint "")
    )
    (path "/00000000-0000-0000-0000-0000611a7f6e/00000000-0000-0000-0000-00004c62d843"
      (reference "#P+035") (unit 1) (value "+5V") (footprint "")
    )
    (path "/00000000-0000-0000-0000-0000611a891c/00000000-0000-0000-0000-0000e46721a6"
      (reference "#SUPPLY01") (unit 1) (value "VEE") (footprint "")
    )
    (path "/00000000-0000-0000-0000-0000611a853d/00000000-0000-0000-0000-000033efdb7c"
      (reference "#SUPPLY02") (unit 1) (value "VEE") (footprint "")
    )
    (path "/00000000-0000-0000-0000-0000611a891c/00000000-0000-0000-0000-0000d5692080"
      (reference "#SUPPLY03") (unit 1) (value "VEE") (footprint "")
    )
    (path "/00000000-0000-0000-0000-0000611a891c/00000000-0000-0000-0000-00006df68c43"
      (reference "#SUPPLY04") (unit 1) (value "VEE") (footprint "")
    )
    (path "/00000000-0000-0000-0000-0000611a891c/e97d8d10-50c2-4cc8-923a-dd2da085dc10"
      (reference "#SUPPLY05") (unit 1) (value "VEE") (footprint "")
    )
    (path "/00000000-0000-0000-0000-0000611a891c/00000000-0000-0000-0000-0000ac3081b0"
      (reference "#SUPPLY010") (unit 1) (value "VEE") (footprint "")
    )
    (path "/00000000-0000-0000-0000-0000611a853d/00000000-0000-0000-0000-0000569cf812"
      (reference "C1") (unit 1) (value "18p") (footprint "module_tester-v02:C025-025X050")
    )
    (path "/00000000-0000-0000-0000-0000611a80c8/00000000-0000-0000-0000-000069098dab"
      (reference "C2") (unit 1) (value "100n") (footprint "module_tester-v02:C025-025X050")
    )
    (path "/00000000-0000-0000-0000-0000611a891c/00000000-0000-0000-0000-00000ae61553"
      (reference "C3") (unit 1) (value "100n") (footprint "module_tester-v02:C025-025X050")
    )
    (path "/00000000-0000-0000-0000-0000611a853d/00000000-0000-0000-0000-0000284ea6e9"
      (reference "C4") (unit 1) (value "100n") (footprint "module_tester-v02:C025-025X050")
    )
    (path "/00000000-0000-0000-0000-0000611a853d/00000000-0000-0000-0000-0000f9108c4c"
      (reference "C5") (unit 1) (value "100n") (footprint "module_tester-v02:C025-025X050")
    )
    (path "/00000000-0000-0000-0000-0000611a853d/00000000-0000-0000-0000-0000dcd4e3e0"
      (reference "C6") (unit 1) (value "4.7u") (footprint "module_tester-v02:E2,5-6")
    )
    (path "/00000000-0000-0000-0000-0000611a853d/00000000-0000-0000-0000-0000cef095af"
      (reference "C7") (unit 1) (value "18p") (footprint "module_tester-v02:C025-025X050")
    )
    (path "/00000000-0000-0000-0000-0000611a853d/00000000-0000-0000-0000-00008efb4a12"
      (reference "C8") (unit 1) (value "1n") (footprint "module_tester-v02:C025-025X050")
    )
    (path "/00000000-0000-0000-0000-0000611a853d/00000000-0000-0000-0000-0000c2fdbd7a"
      (reference "C9") (unit 1) (value "100u") (footprint "module_tester-v02:E2,5-7")
    )
    (path "/00000000-0000-0000-0000-0000611a7f6e/00000000-0000-0000-0000-000059663956"
      (reference "C11") (unit 1) (value "100n") (footprint "module_tester-v02:C025-025X050")
    )
    (path "/00000000-0000-0000-0000-0000611a7f6e/00000000-0000-0000-0000-0000edebc786"
      (reference "C13") (unit 1) (value "18p") (footprint "module_tester-v02:C025-025X050")
    )
    (path "/00000000-0000-0000-0000-0000611a7f6e/00000000-0000-0000-0000-0000093e056a"
      (reference "C14") (unit 1) (value "18p") (footprint "module_tester-v02:C025-025X050")
    )
    (path "/00000000-0000-0000-0000-0000611a80c8/00000000-0000-0000-0000-00009def2eb6"
      (reference "C15") (unit 1) (value "100n") (footprint "module_tester-v02:C025-025X050")
    )
    (path "/00000000-0000-0000-0000-0000611a7f6e/00000000-0000-0000-0000-0000e207c13d"
      (reference "C16") (unit 1) (value "100n") (footprint "module_tester-v02:C025-025X050")
    )
    (path "/00000000-0000-0000-0000-0000611a80c8/00000000-0000-0000-0000-0000383227e3"
      (reference "C17") (unit 1) (value "100n") (footprint "module_tester-v02:C025-025X050")
    )
    (path "/00000000-0000-0000-0000-0000611a7f6e/00000000-0000-0000-0000-000052b654be"
      (reference "C18") (unit 1) (value "100n") (footprint "module_tester-v02:C025-025X050")
    )
    (path "/00000000-0000-0000-0000-0000611a891c/00000000-0000-0000-0000-00005d88d454"
      (reference "C19") (unit 1) (value "100n") (footprint "module_tester-v02:C025-025X050")
    )
    (path "/00000000-0000-0000-0000-0000611a7f6e/00000000-0000-0000-0000-00001d7b263c"
      (reference "C20") (unit 1) (value "100n") (footprint "module_tester-v02:C025-025X050")
    )
    (path "/00000000-0000-0000-0000-0000611a80c8/00000000-0000-0000-0000-000009f0e208"
      (reference "C21") (unit 1) (value "100n") (footprint "module_tester-v02:C025-025X050")
    )
    (path "/00000000-0000-0000-0000-0000611a853d/00000000-0000-0000-0000-00008a2fd79c"
      (reference "C22") (unit 1) (value "1n") (footprint "module_tester-v02:C025-025X050")
    )
    (path "/00000000-0000-0000-0000-0000611a853d/00000000-0000-0000-0000-0000723fb792"
      (reference "C23") (unit 1) (value "100n") (footprint "module_tester-v02:C025-025X050")
    )
    (path "/00000000-0000-0000-0000-0000611a853d/00000000-0000-0000-0000-0000e783d9ee"
      (reference "C24") (unit 1) (value "4.7u NP") (footprint "module_tester-v02:E2,5-6")
    )
    (path "/00000000-0000-0000-0000-0000611a853d/00000000-0000-0000-0000-00001db35dcc"
      (reference "C25") (unit 1) (value "100n") (footprint "module_tester-v02:C025-025X050")
    )
    (path "/00000000-0000-0000-0000-0000611a891c/00000000-0000-0000-0000-0000ce145288"
      (reference "C26") (unit 1) (value "100u") (footprint "module_tester-v02:E2,5-7")
    )
    (path "/00000000-0000-0000-0000-0000611a891c/00000000-0000-0000-0000-0000ccf46d11"
      (reference "C27") (unit 1) (value "100u") (footprint "module_tester-v02:E2,5-7")
    )
    (path "/00000000-0000-0000-0000-0000611a891c/00000000-0000-0000-0000-0000ffe6d357"
      (reference "C28") (unit 1) (value "100u") (footprint "module_tester-v02:E2,5-7")
    )
    (path "/00000000-0000-0000-0000-0000611a80c8/00000000-0000-0000-0000-00008a755ed4"
      (reference "D1") (unit 1) (value "1N4148") (footprint "module_tester-v02:D-5")
    )
    (path "/00000000-0000-0000-0000-0000611a891c/00000000-0000-0000-0000-0000ae697d1d"
      (reference "D8") (unit 1) (value "1N5819") (footprint "module_tester-v02:DO41-7.6")
    )
    (path "/00000000-0000-0000-0000-0000611a891c/00000000-0000-0000-0000-000001f958ef"
      (reference "D9") (unit 1) (value "1N4004") (footprint "module_tester-v02:DO41-10")
    )
    (path "/00000000-0000-0000-0000-0000611a891c/09c45c51-1ee9-420b-ac7a-aa9c95ea2b94"
      (reference "H1") (unit 1) (value "MountingHole") (footprint "ao_tht:MountingHole_3.2mm_M3")
    )
    (path "/00000000-0000-0000-0000-0000611a891c/822a5a11-b198-40f6-8988-32fd2d4b0276"
      (reference "H2") (unit 1) (value "MountingHole") (footprint "ao_tht:MountingHole_3.2mm_M3")
    )
    (path "/00000000-0000-0000-0000-0000611a891c/7e0645d6-f78a-49b7-a9cb-4f2a2dbdd3e2"
      (reference "H3") (unit 1) (value "MountingHole") (footprint "ao_tht:MountingHole_3.2mm_M3")
    )
    (path "/00000000-0000-0000-0000-0000611a891c/8a2d1279-81e9-4cb1-8fe1-b318db0afc30"
      (reference "H4") (unit 1) (value "MountingHole") (footprint "ao_tht:MountingHole_3.2mm_M3")
    )
    (path "/00000000-0000-0000-0000-0000611a891c/00000000-0000-0000-0000-00001af1c015"
      (reference "IC1") (unit 1) (value "LM4040 4.1V") (footprint "module_tester-v02:LP_O-PBCY-W3")
    )
    (path "/00000000-0000-0000-0000-0000611a853d/00000000-0000-0000-0000-0000541775ca"
      (reference "IC2") (unit 1) (value "TL074P") (footprint "ao_tht:DIP-14_W7.62mm_Socket_LongPads")
    )
    (path "/00000000-0000-0000-0000-0000611a853d/00000000-0000-0000-0000-0000541775c6"
      (reference "IC2") (unit 2) (value "TL074P") (footprint "ao_tht:DIP-14_W7.62mm_Socket_LongPads")
    )
    (path "/00000000-0000-0000-0000-0000611a853d/00000000-0000-0000-0000-0000541775c2"
      (reference "IC2") (unit 3) (value "TL074P") (footprint "ao_tht:DIP-14_W7.62mm_Socket_LongPads")
    )
    (path "/00000000-0000-0000-0000-0000611a853d/00000000-0000-0000-0000-0000541775de"
      (reference "IC2") (unit 4) (value "TL074P") (footprint "ao_tht:DIP-14_W7.62mm_Socket_LongPads")
    )
    (path "/00000000-0000-0000-0000-0000611a853d/00000000-0000-0000-0000-0000541775da"
      (reference "IC2") (unit 5) (value "TL074P") (footprint "ao_tht:DIP-14_W7.62mm_Socket_LongPads")
    )
    (path "/00000000-0000-0000-0000-0000611a853d/00000000-0000-0000-0000-00005ed25ca7"
      (reference "IC3") (unit 1) (value "MCP4822") (footprint "ao_tht:DIP-8_W7.62mm_Socket_LongPads")
    )
    (path "/00000000-0000-0000-0000-0000611a7f6e/00000000-0000-0000-0000-00004dfbbe8f"
      (reference "IC4") (unit 1) (value "ATMEGA644p") (footprint "Package_DIP:DIP-40_W15.24mm_Socket_LongPads")
    )
    (path "/00000000-0000-0000-0000-0000611a80c8/00000000-0000-0000-0000-0000e57833a7"
      (reference "IC5") (unit 1) (value "74595N") (footprint "ao_tht:DIP-16_W7.62mm_Socket_LongPads")
    )
    (path "/00000000-0000-0000-0000-0000611a80c8/00000000-0000-0000-0000-0000e57833ab"
      (reference "IC5") (unit 2) (value "74595N") (footprint "ao_tht:DIP-16_W7.62mm_Socket_LongPads")
    )
    (path "/00000000-0000-0000-0000-0000611a80c8/00000000-0000-0000-0000-00009df368b8"
      (reference "IC6") (unit 1) (value "74HC165N") (footprint "ao_tht:DIP-16_W7.62mm_Socket_LongPads")
    )
    (path "/00000000-0000-0000-0000-0000611a80c8/00000000-0000-0000-0000-00009df368b4"
      (reference "IC6") (unit 2) (value "74HC165N") (footprint "ao_tht:DIP-16_W7.62mm_Socket_LongPads")
    )
    (path "/00000000-0000-0000-0000-0000611a853d/00000000-0000-0000-0000-00007c0866e7"
      (reference "IC7") (unit 1) (value "MCP6002") (footprint "ao_tht:DIP-8_W7.62mm_Socket_LongPads")
    )
    (path "/00000000-0000-0000-0000-0000611a853d/00000000-0000-0000-0000-00007c0866eb"
      (reference "IC7") (unit 2) (value "MCP6002") (footprint "ao_tht:DIP-8_W7.62mm_Socket_LongPads")
    )
    (path "/00000000-0000-0000-0000-0000611a853d/00000000-0000-0000-0000-00007c0866ef"
      (reference "IC7") (unit 3) (value "MCP6002") (footprint "ao_tht:DIP-8_W7.62mm_Socket_LongPads")
    )
    (path "/00000000-0000-0000-0000-0000611a891c/00000000-0000-0000-0000-000059ca2eb8"
      (reference "IC8") (unit 1) (value "7805") (footprint "module_tester-v02:78XXL")
    )
    (path "/00000000-0000-0000-0000-0000611a80c8/00000000-0000-0000-0000-00002ce6a523"
      (reference "J1") (unit 1) (value "PJ301_THONKICONN6") (footprint "module_tester-v02:WQP_PJ_301M6")
    )
    (path "/00000000-0000-0000-0000-0000611a80c8/00000000-0000-0000-0000-0000f2d55355"
      (reference "J2") (unit 1) (value "PJ301_THONKICONN6") (footprint "module_tester-v02:WQP_PJ_301M6")
    )
    (path "/00000000-0000-0000-0000-0000611a853d/00000000-0000-0000-0000-0000d6a0affd"
      (reference "J3") (unit 1) (value "PJ301_THONKICONN6") (footprint "module_tester-v02:WQP_PJ_301M6")
    )
    (path "/00000000-0000-0000-0000-0000611a853d/00000000-0000-0000-0000-00002a89db3b"
      (reference "J4") (unit 1) (value "PJ301_THONKICONN6") (footprint "module_tester-v02:WQP_PJ_301M6")
    )
    (path "/00000000-0000-0000-0000-0000611a853d/00000000-0000-0000-0000-00000a445ba9"
      (reference "J5") (unit 1) (value "PJ301_THONKICONN6") (footprint "module_tester-v02:WQP_PJ_301M6")
    )
    (path "/00000000-0000-0000-0000-0000611a891c/00000000-0000-0000-0000-00001b1e17eb"
      (reference "J7") (unit 1) (value "M08X2") (footprint "Connector_IDC:IDC-Header_2x08_P2.54mm_Vertical")
    )
    (path "/00000000-0000-0000-0000-0000611a853d/00000000-0000-0000-0000-00005b92cf69"
      (reference "J8") (unit 1) (value "MONOSWSLIM") (footprint "ao_tht:Jack_6.35mm_Neutrik_NMJ6HCD2_Horizontal")
    )
    (path "/00000000-0000-0000-0000-0000611a891c/00000000-0000-0000-0000-00005ebf55db"
      (reference "J9") (unit 1) (value "JACK-PLUG2") (footprint "module_tester-v02:SPC4078_BIG_HOLES")
    )
    (path "/00000000-0000-0000-0000-0000611a80c8/00000000-0000-0000-0000-0000a8f50699"
      (reference "J10") (unit 1) (value "PJ301_THONKICONN6") (footprint "module_tester-v02:WQP_PJ_301M6")
    )
    (path "/00000000-0000-0000-0000-0000611a891c/00000000-0000-0000-0000-0000acd8e5b6"
      (reference "JP3") (unit 1) (value "M02PTH") (footprint "module_tester-v02:1X02")
    )
    (path "/00000000-0000-0000-0000-0000611a891c/00000000-0000-0000-0000-000047274fb3"
      (reference "JP4") (unit 1) (value "M02PTH") (footprint "module_tester-v02:1X02")
    )
    (path "/00000000-0000-0000-0000-0000611a891c/00000000-0000-0000-0000-00007f37e81d"
      (reference "JP6") (unit 1) (value "M01PTH") (footprint "module_tester-v02:1X01")
    )
    (path "/00000000-0000-0000-0000-0000611a891c/00000000-0000-0000-0000-0000600e0b9c"
      (reference "JP7") (unit 1) (value "M01PTH") (footprint "module_tester-v02:1X01")
    )
    (path "/00000000-0000-0000-0000-0000611a891c/00000000-0000-0000-0000-0000a6258458"
      (reference "JP8") (unit 1) (value "M01PTH") (footprint "module_tester-v02:1X01")
    )
    (path "/00000000-0000-0000-0000-0000611a891c/00000000-0000-0000-0000-0000e957c24b"
      (reference "JP9") (unit 1) (value "M01PTH") (footprint "module_tester-v02:1X01")
    )
    (path "/00000000-0000-0000-0000-0000611a80c8/00000000-0000-0000-0000-0000d5d4a691"
      (reference "LED1") (unit 1) (value "LED3MM") (footprint "module_tester-v02:LED3MM")
    )
    (path "/00000000-0000-0000-0000-0000611a80c8/00000000-0000-0000-0000-00006a31474d"
      (reference "LED2") (unit 1) (value "LED3MM") (footprint "module_tester-v02:LED3MM")
    )
    (path "/00000000-0000-0000-0000-0000611a80c8/00000000-0000-0000-0000-000057046be5"
      (reference "LED3") (unit 1) (value "LED3MM") (footprint "module_tester-v02:LED3MM")
    )
    (path "/00000000-0000-0000-0000-0000611a80c8/00000000-0000-0000-0000-00000d206a19"
      (reference "LED4") (unit 1) (value "LED3MM") (footprint "module_tester-v02:LED3MM")
    )
    (path "/00000000-0000-0000-0000-0000611a80c8/00000000-0000-0000-0000-00009bd6f4e6"
      (reference "LED5") (unit 1) (value "LED3MM") (footprint "module_tester-v02:LED3MM")
    )
    (path "/00000000-0000-0000-0000-0000611a80c8/00000000-0000-0000-0000-00003a04d24d"
      (reference "LED6") (unit 1) (value "LED3MM") (footprint "module_tester-v02:LED3MM")
    )
    (path "/00000000-0000-0000-0000-0000611a80c8/00000000-0000-0000-0000-00003e672664"
      (reference "OK1") (unit 1) (value "6N137") (footprint "ao_tht:DIP-8_W7.62mm_Socket_LongPads")
    )
    (path "/00000000-0000-0000-0000-0000611a80c8/00000000-0000-0000-0000-00007a211019"
      (reference "Q1") (unit 1) (value "2N3904") (footprint "module_tester-v02:TO92-")
    )
    (path "/00000000-0000-0000-0000-0000611a7f6e/00000000-0000-0000-0000-0000ec524f1e"
      (reference "Q2") (unit 1) (value "20MHz") (footprint "module_tester-v02:HC49U-V")
    )
    (path "/00000000-0000-0000-0000-0000611a853d/00000000-0000-0000-0000-00001c1e0795"
      (reference "R1") (unit 1) (value "470") (footprint "module_tester-v02:0204_7")
    )
    (path "/00000000-0000-0000-0000-0000611a891c/00000000-0000-0000-0000-000024183500"
      (reference "R2") (unit 1) (value "470") (footprint "module_tester-v02:0204_7")
    )
    (path "/00000000-0000-0000-0000-0000611a80c8/00000000-0000-0000-0000-0000abedb9f7"
      (reference "R3") (unit 1) (value "220") (footprint "module_tester-v02:0204_7")
    )
    (path "/00000000-0000-0000-0000-0000611a853d/00000000-0000-0000-0000-00004f739d54"
      (reference "R4") (unit 1) (value "33k") (footprint "module_tester-v02:0204_7")
    )
    (path "/00000000-0000-0000-0000-0000611a80c8/00000000-0000-0000-0000-00000764e48a"
      (reference "R5") (unit 1) (value "10k") (footprint "module_tester-v02:0204_7")
    )
    (path "/00000000-0000-0000-0000-0000611a853d/00000000-0000-0000-0000-000096e7e6d7"
      (reference "R6") (unit 1) (value "10k") (footprint "module_tester-v02:0204_7")
    )
    (path "/00000000-0000-0000-0000-0000611a853d/00000000-0000-0000-0000-0000f9ef3f38"
      (reference "R7") (unit 1) (value "100k") (footprint "module_tester-v02:0204_7")
    )
    (path "/00000000-0000-0000-0000-0000611a80c8/00000000-0000-0000-0000-00001b403fd6"
      (reference "R8") (unit 1) (value "5k") (footprint "module_tester-v02:RTRIM3339P")
    )
    (path "/00000000-0000-0000-0000-0000611a853d/00000000-0000-0000-0000-0000ec36da1b"
      (reference "R9") (unit 1) (value "20k") (footprint "module_tester-v02:RTRIM3296W")
    )
    (path "/00000000-0000-0000-0000-0000611a853d/00000000-0000-0000-0000-000077b4bf1d"
      (reference "R10") (unit 1) (value "82k") (footprint "module_tester-v02:0204_7")
    )
    (path "/00000000-0000-0000-0000-0000611a853d/00000000-0000-0000-0000-00002a0ddb7e"
      (reference "R11") (unit 1) (value "62k") (footprint "module_tester-v02:0204_7")
    )
    (path "/00000000-0000-0000-0000-0000611a853d/00000000-0000-0000-0000-00003fef5e80"
      (reference "R12") (unit 1) (value "47k") (footprint "module_tester-v02:0204_7")
    )
    (path "/00000000-0000-0000-0000-0000611a853d/00000000-0000-0000-0000-000084733bcc"
      (reference "R13") (unit 1) (value "5k") (footprint "module_tester-v02:RTRIM3296W")
    )
    (path "/00000000-0000-0000-0000-0000611a80c8/00000000-0000-0000-0000-000025aac212"
      (reference "R14") (unit 1) (value "0") (footprint "module_tester-v02:0204_7")
    )
    (path "/00000000-0000-0000-0000-0000611a853d/00000000-0000-0000-0000-00008fbabd33"
      (reference "R15") (unit 1) (value "150k") (footprint "module_tester-v02:0204_7")
    )
    (path "/00000000-0000-0000-0000-0000611a853d/00000000-0000-0000-0000-0000db1bd950"
      (reference "R16") (unit 1) (value "150k") (footprint "module_tester-v02:0204_7")
    )
    (path "/00000000-0000-0000-0000-0000611a80c8/00000000-0000-0000-0000-0000db79b4f3"
      (reference "R17") (unit 1) (value "10k") (footprint "module_tester-v02:0204_7")
    )
    (path "/00000000-0000-0000-0000-0000611a80c8/00000000-0000-0000-0000-0000ffe918c4"
      (reference "R18") (unit 1) (value "100k") (footprint "module_tester-v02:0204_7")
    )
    (path "/00000000-0000-0000-0000-0000611a80c8/00000000-0000-0000-0000-0000e4bb7ddf"
      (reference "R19") (unit 1) (value "220") (footprint "module_tester-v02:0204_7")
    )
    (path "/00000000-0000-0000-0000-0000611a80c8/00000000-0000-0000-0000-000028014392"
      (reference "R20") (unit 1) (value "220") (footprint "module_tester-v02:0204_7")
    )
    (path "/00000000-0000-0000-0000-0000611a80c8/00000000-0000-0000-0000-0000103b8410"
      (reference "R21") (unit 1) (value "220") (footprint "module_tester-v02:0204_7")
    )
    (path "/00000000-0000-0000-0000-0000611a80c8/00000000-0000-0000-0000-0000c4cf8556"
      (reference "R22") (unit 1) (value "220") (footprint "module_tester-v02:0204_7")
    )
    (path "/00000000-0000-0000-0000-0000611a80c8/00000000-0000-0000-0000-000095ca20b9"
      (reference "R23") (unit 1) (value "220") (footprint "module_tester-v02:0204_7")
    )
    (path "/00000000-0000-0000-0000-0000611a80c8/00000000-0000-0000-0000-000023edf6df"
      (reference "R24") (unit 1) (value "220") (footprint "module_tester-v02:0204_7")
    )
    (path "/00000000-0000-0000-0000-0000611a80c8/00000000-0000-0000-0000-0000e5996d3f"
      (reference "R25") (unit 1) (value "220") (footprint "module_tester-v02:0204_7")
    )
    (path "/00000000-0000-0000-0000-0000611a7f6e/00000000-0000-0000-0000-000049eeb110"
      (reference "R26") (unit 1) (value "10k") (footprint "module_tester-v02:0204_7")
    )
    (path "/00000000-0000-0000-0000-0000611a80c8/00000000-0000-0000-0000-000015d55917"
      (reference "R27") (unit 1) (value "220") (footprint "module_tester-v02:0204_7")
    )
    (path "/00000000-0000-0000-0000-0000611a853d/00000000-0000-0000-0000-0000f6b01f28"
      (reference "R28") (unit 1) (value "33k") (footprint "module_tester-v02:0204_7")
    )
    (path "/00000000-0000-0000-0000-0000611a853d/00000000-0000-0000-0000-00000b6f6d7a"
      (reference "R29") (unit 1) (value "100k") (footprint "module_tester-v02:0204_7")
    )
    (path "/00000000-0000-0000-0000-0000611a853d/00000000-0000-0000-0000-0000dca185ba"
      (reference "R30") (unit 1) (value "1M") (footprint "module_tester-v02:0204_7")
    )
    (path "/00000000-0000-0000-0000-0000611a853d/00000000-0000-0000-0000-00003d80017b"
      (reference "R31") (unit 1) (value "100k") (footprint "module_tester-v02:0204_7")
    )
    (path "/00000000-0000-0000-0000-0000611a853d/00000000-0000-0000-0000-000025e9b245"
      (reference "R32") (unit 1) (value "47k") (footprint "module_tester-v02:0204_7")
    )
    (path "/00000000-0000-0000-0000-0000611a853d/00000000-0000-0000-0000-000054ff942e"
      (reference "R33") (unit 1) (value "100k") (footprint "module_tester-v02:0204_7")
    )
    (path "/00000000-0000-0000-0000-0000611a853d/00000000-0000-0000-0000-0000b952d5c6"
      (reference "R34") (unit 1) (value "470") (footprint "module_tester-v02:0204_7")
    )
    (path "/00000000-0000-0000-0000-0000611a853d/00000000-0000-0000-0000-0000210866ed"
      (reference "R35") (unit 1) (value "470") (footprint "module_tester-v02:0204_7")
    )
    (path "/00000000-0000-0000-0000-0000611a80c8/00000000-0000-0000-0000-000000558c30"
      (reference "RN1") (unit 1) (value "G06R") (footprint "module_tester-v02:SIL7")
    )
    (path "/00000000-0000-0000-0000-0000611a80c8/00000000-0000-0000-0000-0000cebffd5e"
      (reference "S1") (unit 1) (value "40-XX") (footprint "module_tester-v02:B3F-40XX")
    )
    (path "/00000000-0000-0000-0000-0000611a80c8/00000000-0000-0000-0000-0000f82f9bf5"
      (reference "S2") (unit 1) (value "40-XX") (footprint "module_tester-v02:B3F-40XX")
    )
    (path "/00000000-0000-0000-0000-0000611a80c8/00000000-0000-0000-0000-00002cb5445e"
      (reference "S3") (unit 1) (value "40-XX") (footprint "module_tester-v02:B3F-40XX")
    )
    (path "/00000000-0000-0000-0000-0000611a80c8/00000000-0000-0000-0000-000066765150"
      (reference "S4") (unit 1) (value "40-XX") (footprint "module_tester-v02:B3F-40XX")
    )
    (path "/00000000-0000-0000-0000-0000611a80c8/00000000-0000-0000-0000-00002cd42a27"
      (reference "S5") (unit 1) (value "40-XX") (footprint "module_tester-v02:B3F-40XX")
    )
    (path "/00000000-0000-0000-0000-0000611a80c8/00000000-0000-0000-0000-0000739fb15a"
      (reference "S6") (unit 1) (value "40-XX") (footprint "module_tester-v02:B3F-40XX")
    )
    (path "/00000000-0000-0000-0000-0000611a80c8/00000000-0000-0000-0000-00008d8e9199"
      (reference "SW1") (unit 1) (value "Encoder") (footprint "module_tester-v02:ALPS_EC12E_SW")
    )
    (path "/00000000-0000-0000-0000-0000611a80c8/00000000-0000-0000-0000-00008d8e9195"
      (reference "SW1") (unit 2) (value "Encoder") (footprint "module_tester-v02:ALPS_EC12E_SW")
    )
    (path "/00000000-0000-0000-0000-0000611a80c8/00000000-0000-0000-0000-000054307519"
      (reference "U$3") (unit 1) (value "LCD_MODULE2X16") (footprint "module_tester-v02:LCD_MODULE_2X16")
    )
    (path "/00000000-0000-0000-0000-0000611a7f6e/00000000-0000-0000-0000-00009e4f24d8"
      (reference "U1") (unit 1) (value "ISP") (footprint "module_tester-v02:2X3")
    )
    (path "/00000000-0000-0000-0000-0000611a80c8/00000000-0000-0000-0000-000030c7993e"
      (reference "X1") (unit 1) (value "MIDI") (footprint "ao_tht:DIN5")
    )
  )
)
