(module 1X01 (layer F.Cu) (tedit 0)
  (fp_text reference JP8 (at 1.1938 -1.8288) (layer F.SilkS) hide
    (effects (font (size 1.2065 1.2065) (thickness 0.1016)) (justify left bottom))
  )
  (fp_text value M01PTH (at -1.27 3.175) (layer F.Fab) hide
    (effects (font (size 1.2065 1.2065) (thickness 0.1016)) (justify left bottom))
  )
  (fp_line (start 1.27 -0.635) (end 0.635 -1.27) (layer F.SilkS) (width 0.2032))
  (fp_line (start 0.635 -1.27) (end -0.635 -1.27) (layer F.SilkS) (width 0.2032))
  (fp_line (start -0.635 -1.27) (end -1.27 -0.635) (layer F.SilkS) (width 0.2032))
  (fp_line (start -1.27 -0.635) (end -1.27 0.635) (layer F.SilkS) (width 0.2032))
  (fp_line (start -1.27 0.635) (end -0.635 1.27) (layer F.SilkS) (width 0.2032))
  (fp_line (start -0.635 1.27) (end 0.635 1.27) (layer F.SilkS) (width 0.2032))
  (fp_line (start 0.635 1.27) (end 1.27 0.635) (layer F.SilkS) (width 0.2032))
  (fp_line (start 1.27 0.635) (end 1.27 -0.635) (layer F.SilkS) (width 0.2032))
  (fp_poly (pts (xy -0.254 0.254) (xy 0.254 0.254) (xy 0.254 -0.254) (xy -0.254 -0.254)) (layer F.Fab) (width 0))
  (pad 1 thru_hole circle (at 0 0 90) (size 1.8796 1.8796) (drill 1.016) (layers *.Cu *.Mask)
    (solder_mask_margin 0.1016))
)
