(module B3F-40XX (layer F.Cu) (tedit 0)
  (descr "<b>OMRON SWITCH</b>")
  (fp_text reference S6 (at -5.08 -6.985) (layer F.SilkS)
    (effects (font (size 1.2065 1.2065) (thickness 0.12065)) (justify left bottom))
  )
  (fp_text value "" (at -3.175 5.08) (layer F.Fab)
    (effects (font (size 1.2065 1.2065) (thickness 0.12065)) (justify left bottom))
  )
  (fp_line (start -1.905 -1.905) (end 1.905 -1.905) (layer F.SilkS) (width 0.1524))
  (fp_line (start 1.905 1.905) (end 1.905 -1.905) (layer F.SilkS) (width 0.1524))
  (fp_line (start 1.905 1.905) (end -1.905 1.905) (layer F.SilkS) (width 0.1524))
  (fp_line (start -1.905 -1.905) (end -1.905 1.905) (layer F.SilkS) (width 0.1524))
  (fp_line (start -1.651 -1.651) (end 1.651 -1.651) (layer F.SilkS) (width 0.0508))
  (fp_line (start 1.651 1.651) (end 1.651 -1.651) (layer F.SilkS) (width 0.0508))
  (fp_line (start 1.651 1.651) (end -1.651 1.651) (layer F.SilkS) (width 0.0508))
  (fp_line (start -1.651 -1.651) (end -1.651 1.651) (layer F.SilkS) (width 0.0508))
  (fp_line (start -1.016 -6.096) (end -1.016 -6.477) (layer F.SilkS) (width 0.1524))
  (fp_line (start -1.016 -6.096) (end 1.016 -6.096) (layer F.SilkS) (width 0.1524))
  (fp_line (start -1.016 -6.477) (end 1.016 -6.477) (layer F.SilkS) (width 0.1524))
  (fp_line (start 1.016 -6.477) (end 1.016 -6.096) (layer F.SilkS) (width 0.1524))
  (fp_line (start 6.096 -5.08) (end 5.08 -6.096) (layer F.SilkS) (width 0.1524))
  (fp_line (start 5.08 -6.096) (end 1.778 -6.096) (layer F.SilkS) (width 0.1524))
  (fp_line (start 6.096 -5.08) (end 6.096 -3.81) (layer F.SilkS) (width 0.1524))
  (fp_line (start 6.096 -1.143) (end 6.096 -3.81) (layer F.Fab) (width 0.1524))
  (fp_line (start 6.096 -1.143) (end 6.096 1.143) (layer F.SilkS) (width 0.1524))
  (fp_line (start 6.096 3.81) (end 6.096 1.143) (layer F.Fab) (width 0.1524))
  (fp_line (start 5.08 6.096) (end 6.096 5.08) (layer F.SilkS) (width 0.1524))
  (fp_line (start 6.096 5.08) (end 6.096 3.81) (layer F.SilkS) (width 0.1524))
  (fp_line (start -6.096 -1.143) (end -6.096 -3.81) (layer F.Fab) (width 0.1524))
  (fp_line (start -6.096 -1.143) (end -6.096 1.143) (layer F.SilkS) (width 0.1524))
  (fp_line (start -6.096 3.81) (end -6.096 1.143) (layer F.Fab) (width 0.1524))
  (fp_line (start -6.096 3.81) (end -6.096 5.08) (layer F.SilkS) (width 0.1524))
  (fp_line (start -6.096 5.08) (end -5.08 6.096) (layer F.SilkS) (width 0.1524))
  (fp_line (start -5.08 6.096) (end -1.778 6.096) (layer F.SilkS) (width 0.1524))
  (fp_line (start -5.08 -6.096) (end -1.778 -6.096) (layer F.SilkS) (width 0.1524))
  (fp_line (start -5.08 -6.096) (end -6.096 -5.08) (layer F.SilkS) (width 0.1524))
  (fp_line (start -6.096 -5.08) (end -6.096 -3.81) (layer F.SilkS) (width 0.1524))
  (fp_line (start -1.016 6.477) (end 1.016 6.477) (layer F.SilkS) (width 0.1524))
  (fp_line (start -1.016 6.477) (end -1.016 6.096) (layer F.SilkS) (width 0.1524))
  (fp_line (start 1.016 6.096) (end 1.016 6.477) (layer F.SilkS) (width 0.1524))
  (fp_line (start 5.08 -6.096) (end 4.826 -6.35) (layer F.SilkS) (width 0.1524))
  (fp_line (start 4.826 -6.35) (end 1.778 -6.35) (layer F.SilkS) (width 0.1524))
  (fp_line (start 1.778 -6.35) (end 1.778 -6.096) (layer F.SilkS) (width 0.1524))
  (fp_line (start 1.778 -6.096) (end 1.016 -6.096) (layer F.SilkS) (width 0.1524))
  (fp_line (start -1.778 -6.35) (end -1.778 -6.096) (layer F.SilkS) (width 0.1524))
  (fp_line (start -1.778 -6.096) (end -1.016 -6.096) (layer F.SilkS) (width 0.1524))
  (fp_line (start -1.778 -6.35) (end -4.826 -6.35) (layer F.SilkS) (width 0.1524))
  (fp_line (start -5.08 -6.096) (end -4.826 -6.35) (layer F.SilkS) (width 0.1524))
  (fp_line (start -1.016 6.096) (end 1.016 6.096) (layer F.SilkS) (width 0.1524))
  (fp_line (start 1.016 6.096) (end 1.778 6.096) (layer F.SilkS) (width 0.1524))
  (fp_line (start -1.778 6.096) (end -1.778 6.35) (layer F.SilkS) (width 0.1524))
  (fp_line (start -1.778 6.096) (end -1.016 6.096) (layer F.SilkS) (width 0.1524))
  (fp_line (start -1.778 6.35) (end -4.826 6.35) (layer F.SilkS) (width 0.1524))
  (fp_line (start -4.826 6.35) (end -5.08 6.096) (layer F.SilkS) (width 0.1524))
  (fp_line (start 1.778 6.096) (end 1.778 6.35) (layer F.SilkS) (width 0.1524))
  (fp_line (start 1.778 6.096) (end 5.08 6.096) (layer F.SilkS) (width 0.1524))
  (fp_line (start 4.826 6.35) (end 1.778 6.35) (layer F.SilkS) (width 0.1524))
  (fp_line (start 5.08 6.096) (end 4.826 6.35) (layer F.SilkS) (width 0.1524))
  (fp_line (start -5.08 -2.54) (end -4.572 -2.54) (layer F.Fab) (width 0.1524))
  (fp_line (start 2.921 -2.54) (end 5.08 -2.54) (layer F.Fab) (width 0.1524))
  (fp_line (start -5.08 2.54) (end -4.572 2.54) (layer F.Fab) (width 0.1524))
  (fp_line (start 2.921 2.54) (end 5.08 2.54) (layer F.Fab) (width 0.1524))
  (fp_line (start -4.572 -2.54) (end -4.572 -0.762) (layer F.Fab) (width 0.1524))
  (fp_line (start -4.572 -2.54) (end -2.921 -2.54) (layer F.Fab) (width 0.1524))
  (fp_line (start -4.572 -0.762) (end -5.08 0.762) (layer F.Fab) (width 0.1524))
  (fp_line (start -4.572 0.762) (end -4.572 2.54) (layer F.Fab) (width 0.1524))
  (fp_line (start -4.572 2.54) (end -2.921 2.54) (layer F.Fab) (width 0.1524))
  (fp_circle (center 0 0) (end 3.556 0) (layer F.SilkS) (width 0.1524))
  (fp_circle (center 0 0) (end 1.016 0) (layer F.SilkS) (width 0.0508))
  (fp_circle (center 0 0) (end 0.762 0) (layer F.SilkS) (width 0.0508))
  (fp_circle (center -4.572 -2.54) (end -4.445 -2.54) (layer F.Fab) (width 0.1524))
  (fp_circle (center -4.572 2.54) (end -4.445 2.54) (layer F.Fab) (width 0.1524))
  (fp_text user 1 (at -5.207 -3.302) (layer F.SilkS)
    (effects (font (size 1.2065 1.2065) (thickness 0.127)) (justify left bottom))
  )
  (fp_text user 2 (at 3.937 -3.302) (layer F.SilkS)
    (effects (font (size 1.2065 1.2065) (thickness 0.127)) (justify left bottom))
  )
  (fp_text user 3 (at -5.207 4.699) (layer F.SilkS)
    (effects (font (size 1.2065 1.2065) (thickness 0.127)) (justify left bottom))
  )
  (fp_text user 4 (at 4.064 4.699) (layer F.SilkS)
    (effects (font (size 1.2065 1.2065) (thickness 0.127)) (justify left bottom))
  )
  (fp_poly (pts (xy 6.096 2.921) (xy 6.604 2.921) (xy 6.604 2.032) (xy 6.096 2.032)) (layer F.Fab) (width 0))
  (fp_poly (pts (xy 6.096 -2.032) (xy 6.604 -2.032) (xy 6.604 -2.921) (xy 6.096 -2.921)) (layer F.Fab) (width 0))
  (fp_poly (pts (xy -6.604 -2.032) (xy -6.096 -2.032) (xy -6.096 -2.921) (xy -6.604 -2.921)) (layer F.Fab) (width 0))
  (fp_poly (pts (xy -6.604 2.921) (xy -6.096 2.921) (xy -6.096 2.032) (xy -6.604 2.032)) (layer F.Fab) (width 0))
  (fp_poly (pts (xy 2.286 -5.842) (xy 4.445 -5.842) (xy 4.445 -6.35) (xy 2.286 -6.35)) (layer F.SilkS) (width 0))
  (fp_poly (pts (xy -4.445 -5.842) (xy -2.286 -5.842) (xy -2.286 -6.35) (xy -4.445 -6.35)) (layer F.SilkS) (width 0))
  (fp_poly (pts (xy 2.286 6.35) (xy 4.445 6.35) (xy 4.445 5.842) (xy 2.286 5.842)) (layer F.SilkS) (width 0))
  (fp_poly (pts (xy -4.445 6.35) (xy -2.286 6.35) (xy -2.286 5.842) (xy -4.445 5.842)) (layer F.SilkS) (width 0))
  (pad 3 thru_hole oval (at -6.2484 2.4892) (size 3.6068 1.8034) (drill 1.1938) (layers *.Cu *.Mask)
    (solder_mask_margin 0.1016))
  (pad 4 thru_hole oval (at 6.2484 2.4892) (size 3.6068 1.8034) (drill 1.1938) (layers *.Cu *.Mask)
    (solder_mask_margin 0.1016))
  (pad 1 thru_hole oval (at -6.2484 -2.4892) (size 3.6068 1.8034) (drill 1.1938) (layers *.Cu *.Mask)
    (solder_mask_margin 0.1016))
  (pad 2 thru_hole oval (at 6.2484 -2.4892) (size 3.6068 1.8034) (drill 1.1938) (layers *.Cu *.Mask)
    (solder_mask_margin 0.1016))
)
