(module DIL08 (layer F.Cu) (tedit 0)
  (descr "<b>Dual In Line Package</b>")
  (fp_text reference IC7 (at -5.969 3.556 -270) (layer F.SilkS)
    (effects (font (size 1.2065 1.2065) (thickness 0.14478)) (justify left bottom))
  )
  (fp_text value MCP6002 (at -3.556 0.635 -180) (layer F.Fab)
    (effects (font (size 1.2065 1.2065) (thickness 0.180975)) (justify left bottom))
  )
  (fp_line (start 5.08 -2.921) (end -5.08 -2.921) (layer F.SilkS) (width 0.1524))
  (fp_line (start -5.08 2.921) (end 5.08 2.921) (layer F.SilkS) (width 0.1524))
  (fp_line (start 5.08 -2.921) (end 5.08 2.921) (layer F.SilkS) (width 0.1524))
  (fp_line (start -5.08 -2.921) (end -5.08 -1.016) (layer F.SilkS) (width 0.1524))
  (fp_line (start -5.08 2.921) (end -5.08 1.016) (layer F.SilkS) (width 0.1524))
  (fp_arc (start -5.08 0) (end -5.08 -1.016) (angle 180) (layer F.SilkS) (width 0.1524))
  (pad 1 thru_hole oval (at -3.81 3.81 90) (size 2.6192 1.3096) (drill 0.7) (layers *.Cu *.Mask)
    (solder_mask_margin 0.1016))
  (pad 2 thru_hole oval (at -1.27 3.81 90) (size 2.6192 1.3096) (drill 0.7) (layers *.Cu *.Mask)
    (solder_mask_margin 0.1016))
  (pad 7 thru_hole oval (at -1.27 -3.81 90) (size 2.6192 1.3096) (drill 0.7) (layers *.Cu *.Mask)
    (solder_mask_margin 0.1016))
  (pad 8 thru_hole oval (at -3.81 -3.81 90) (size 2.6192 1.3096) (drill 0.7) (layers *.Cu *.Mask)
    (solder_mask_margin 0.1016))
  (pad 3 thru_hole oval (at 1.27 3.81 90) (size 2.6192 1.3096) (drill 0.7) (layers *.Cu *.Mask)
    (solder_mask_margin 0.1016))
  (pad 4 thru_hole oval (at 3.81 3.81 90) (size 2.6192 1.3096) (drill 0.7) (layers *.Cu *.Mask)
    (solder_mask_margin 0.1016))
  (pad 6 thru_hole oval (at 1.27 -3.81 90) (size 2.6192 1.3096) (drill 0.7) (layers *.Cu *.Mask)
    (solder_mask_margin 0.1016))
  (pad 5 thru_hole oval (at 3.81 -3.81 90) (size 2.6192 1.3096) (drill 0.7) (layers *.Cu *.Mask)
    (solder_mask_margin 0.1016))
)
