(module DIL40 (layer F.Cu) (tedit 0)
  (descr "<B>Dual In Line</B>")
  (fp_text reference IC4 (at -29.21 -6.35 -90) (layer F.SilkS)
    (effects (font (size 1.6891 1.6891) (thickness 0.253365)) (justify left bottom))
  )
  (fp_text value ATMEGA644p (at -10.16 0.9652) (layer F.Fab)
    (effects (font (size 2.07518 2.07518) (thickness 0.311277)) (justify left bottom))
  )
  (fp_line (start -26.416 1.27) (end -26.416 6.604) (layer F.SilkS) (width 0.1524))
  (fp_arc (start -26.416 0) (end -26.416 -1.27) (angle 180) (layer F.SilkS) (width 0.1524))
  (fp_line (start 26.416 6.604) (end 26.416 -6.604) (layer F.SilkS) (width 0.1524))
  (fp_line (start -26.416 -6.604) (end -26.416 -1.27) (layer F.SilkS) (width 0.1524))
  (fp_line (start -26.416 -6.604) (end 26.416 -6.604) (layer F.SilkS) (width 0.1524))
  (fp_line (start -26.416 6.604) (end 26.416 6.604) (layer F.SilkS) (width 0.1524))
  (pad 1 thru_hole oval (at -24.13 7.62 90) (size 2.8448 1.4224) (drill 0.8128) (layers *.Cu *.Mask)
    (solder_mask_margin 0.1016))
  (pad 2 thru_hole oval (at -21.59 7.62 90) (size 2.8448 1.4224) (drill 0.8128) (layers *.Cu *.Mask)
    (solder_mask_margin 0.1016))
  (pad 3 thru_hole oval (at -19.05 7.62 90) (size 2.8448 1.4224) (drill 0.8128) (layers *.Cu *.Mask)
    (solder_mask_margin 0.1016))
  (pad 4 thru_hole oval (at -16.51 7.62 90) (size 2.8448 1.4224) (drill 0.8128) (layers *.Cu *.Mask)
    (solder_mask_margin 0.1016))
  (pad 5 thru_hole oval (at -13.97 7.62 90) (size 2.8448 1.4224) (drill 0.8128) (layers *.Cu *.Mask)
    (solder_mask_margin 0.1016))
  (pad 6 thru_hole oval (at -11.43 7.62 90) (size 2.8448 1.4224) (drill 0.8128) (layers *.Cu *.Mask)
    (solder_mask_margin 0.1016))
  (pad 7 thru_hole oval (at -8.89 7.62 90) (size 2.8448 1.4224) (drill 0.8128) (layers *.Cu *.Mask)
    (solder_mask_margin 0.1016))
  (pad 8 thru_hole oval (at -6.35 7.62 90) (size 2.8448 1.4224) (drill 0.8128) (layers *.Cu *.Mask)
    (solder_mask_margin 0.1016))
  (pad 9 thru_hole oval (at -3.81 7.62 90) (size 2.8448 1.4224) (drill 0.8128) (layers *.Cu *.Mask)
    (solder_mask_margin 0.1016))
  (pad 10 thru_hole oval (at -1.27 7.62 90) (size 2.8448 1.4224) (drill 0.8128) (layers *.Cu *.Mask)
    (solder_mask_margin 0.1016))
  (pad 11 thru_hole oval (at 1.27 7.62 90) (size 2.8448 1.4224) (drill 0.8128) (layers *.Cu *.Mask)
    (solder_mask_margin 0.1016))
  (pad 12 thru_hole oval (at 3.81 7.62 90) (size 2.8448 1.4224) (drill 0.8128) (layers *.Cu *.Mask)
    (solder_mask_margin 0.1016))
  (pad 13 thru_hole oval (at 6.35 7.62 90) (size 2.8448 1.4224) (drill 0.8128) (layers *.Cu *.Mask)
    (solder_mask_margin 0.1016))
  (pad 14 thru_hole oval (at 8.89 7.62 90) (size 2.8448 1.4224) (drill 0.8128) (layers *.Cu *.Mask)
    (solder_mask_margin 0.1016))
  (pad 15 thru_hole oval (at 11.43 7.62 90) (size 2.8448 1.4224) (drill 0.8128) (layers *.Cu *.Mask)
    (solder_mask_margin 0.1016))
  (pad 16 thru_hole oval (at 13.97 7.62 90) (size 2.8448 1.4224) (drill 0.8128) (layers *.Cu *.Mask)
    (solder_mask_margin 0.1016))
  (pad 17 thru_hole oval (at 16.51 7.62 90) (size 2.8448 1.4224) (drill 0.8128) (layers *.Cu *.Mask)
    (solder_mask_margin 0.1016))
  (pad 18 thru_hole oval (at 19.05 7.62 90) (size 2.8448 1.4224) (drill 0.8128) (layers *.Cu *.Mask)
    (solder_mask_margin 0.1016))
  (pad 19 thru_hole oval (at 21.59 7.62 90) (size 2.8448 1.4224) (drill 0.8128) (layers *.Cu *.Mask)
    (solder_mask_margin 0.1016))
  (pad 20 thru_hole oval (at 24.13 7.62 90) (size 2.8448 1.4224) (drill 0.8128) (layers *.Cu *.Mask)
    (solder_mask_margin 0.1016))
  (pad 21 thru_hole oval (at 24.13 -7.62 90) (size 2.8448 1.4224) (drill 0.8128) (layers *.Cu *.Mask)
    (solder_mask_margin 0.1016))
  (pad 22 thru_hole oval (at 21.59 -7.62 90) (size 2.8448 1.4224) (drill 0.8128) (layers *.Cu *.Mask)
    (solder_mask_margin 0.1016))
  (pad 23 thru_hole oval (at 19.05 -7.62 90) (size 2.8448 1.4224) (drill 0.8128) (layers *.Cu *.Mask)
    (solder_mask_margin 0.1016))
  (pad 24 thru_hole oval (at 16.51 -7.62 90) (size 2.8448 1.4224) (drill 0.8128) (layers *.Cu *.Mask)
    (solder_mask_margin 0.1016))
  (pad 25 thru_hole oval (at 13.97 -7.62 90) (size 2.8448 1.4224) (drill 0.8128) (layers *.Cu *.Mask)
    (solder_mask_margin 0.1016))
  (pad 26 thru_hole oval (at 11.43 -7.62 90) (size 2.8448 1.4224) (drill 0.8128) (layers *.Cu *.Mask)
    (solder_mask_margin 0.1016))
  (pad 27 thru_hole oval (at 8.89 -7.62 90) (size 2.8448 1.4224) (drill 0.8128) (layers *.Cu *.Mask)
    (solder_mask_margin 0.1016))
  (pad 28 thru_hole oval (at 6.35 -7.62 90) (size 2.8448 1.4224) (drill 0.8128) (layers *.Cu *.Mask)
    (solder_mask_margin 0.1016))
  (pad 29 thru_hole oval (at 3.81 -7.62 90) (size 2.8448 1.4224) (drill 0.8128) (layers *.Cu *.Mask)
    (solder_mask_margin 0.1016))
  (pad 30 thru_hole oval (at 1.27 -7.62 90) (size 2.8448 1.4224) (drill 0.8128) (layers *.Cu *.Mask)
    (solder_mask_margin 0.1016))
  (pad 31 thru_hole oval (at -1.27 -7.62 90) (size 2.8448 1.4224) (drill 0.8128) (layers *.Cu *.Mask)
    (solder_mask_margin 0.1016))
  (pad 32 thru_hole oval (at -3.81 -7.62 90) (size 2.8448 1.4224) (drill 0.8128) (layers *.Cu *.Mask)
    (solder_mask_margin 0.1016))
  (pad 33 thru_hole oval (at -6.35 -7.62 90) (size 2.8448 1.4224) (drill 0.8128) (layers *.Cu *.Mask)
    (solder_mask_margin 0.1016))
  (pad 34 thru_hole oval (at -8.89 -7.62 90) (size 2.8448 1.4224) (drill 0.8128) (layers *.Cu *.Mask)
    (solder_mask_margin 0.1016))
  (pad 35 thru_hole oval (at -11.43 -7.62 90) (size 2.8448 1.4224) (drill 0.8128) (layers *.Cu *.Mask)
    (solder_mask_margin 0.1016))
  (pad 36 thru_hole oval (at -13.97 -7.62 90) (size 2.8448 1.4224) (drill 0.8128) (layers *.Cu *.Mask)
    (solder_mask_margin 0.1016))
  (pad 37 thru_hole oval (at -16.51 -7.62 90) (size 2.8448 1.4224) (drill 0.8128) (layers *.Cu *.Mask)
    (solder_mask_margin 0.1016))
  (pad 38 thru_hole oval (at -19.05 -7.62 90) (size 2.8448 1.4224) (drill 0.8128) (layers *.Cu *.Mask)
    (solder_mask_margin 0.1016))
  (pad 39 thru_hole oval (at -21.59 -7.62 90) (size 2.8448 1.4224) (drill 0.8128) (layers *.Cu *.Mask)
    (solder_mask_margin 0.1016))
  (pad 40 thru_hole oval (at -24.13 -7.62 90) (size 2.8448 1.4224) (drill 0.8128) (layers *.Cu *.Mask)
    (solder_mask_margin 0.1016))
)
