(module LP_O-PBCY-W3 (layer F.Cu) (tedit 0)
  (descr "<b>LP (O-PBCY-W3)</b> TO-92/TO-226<p>\nSource: http://focus.ti.com/lit/ds/slcs146e/slcs146e.pdf")
  (fp_text reference IC1 (at 4.191 0.381) (layer F.SilkS)
    (effects (font (size 1.2065 1.2065) (thickness 0.180975)) (justify left bottom))
  )
  (fp_text value "LM4040 4.1V" (at -5.715 -3.429) (layer F.Fab)
    (effects (font (size 1.2065 1.2065) (thickness 0.180975)) (justify left bottom))
  )
  (fp_arc (start 0 0.002399) (end -2.1 1.5) (angle 250.988591) (layer F.Fab) (width 0.2032))
  (fp_line (start -2.1 1.5) (end 2.1 1.5) (layer F.SilkS) (width 0.2032))
  (fp_arc (start -0.299999 0.161363) (end -2.1 1.5) (angle 16.054475) (layer F.SilkS) (width 0.2032))
  (fp_arc (start 0 0.0046) (end -2.425 -0.875) (angle 140.126391) (layer F.SilkS) (width 0.2032))
  (fp_arc (start 0.299999 0.161363) (end 2.1 1.5) (angle -16.054475) (layer F.SilkS) (width 0.2032))
  (pad 3 thru_hole circle (at 2.54 0) (size 1.4 1.4) (drill 0.8) (layers *.Cu *.Mask)
    (solder_mask_margin 0.1016))
  (pad 2 thru_hole circle (at 0 0) (size 1.4 1.4) (drill 0.8) (layers *.Cu *.Mask)
    (solder_mask_margin 0.1016))
  (pad 1 thru_hole circle (at -2.54 0) (size 1.4 1.4) (drill 0.8) (layers *.Cu *.Mask)
    (solder_mask_margin 0.1016))
)
