(module RTRIM3296W (layer F.Cu) (tedit 0)
  (descr "<b>Trimm resistor</b> BOURNS<p>")
  (fp_text reference R13 (at -0.745 -5.025 -270) (layer F.SilkS)
    (effects (font (size 1.2065 1.2065) (thickness 0.09652)) (justify left bottom))
  )
  (fp_text value 5k (at 0.775 -5.025 -270) (layer F.Fab)
    (effects (font (size 1.2065 1.2065) (thickness 0.09652)) (justify left bottom))
  )
  (fp_line (start -2.25 -4.35) (end 2.25 -4.35) (layer F.SilkS) (width 0.254))
  (fp_line (start 2.25 -4.35) (end 2.25 4.35) (layer F.SilkS) (width 0.254))
  (fp_line (start 2.25 4.35) (end -2.25 4.35) (layer F.SilkS) (width 0.254))
  (fp_line (start -2.25 4.35) (end -2.25 -4.35) (layer F.SilkS) (width 0.254))
  (fp_circle (center 0 2.55) (end 1.1011 2.55) (layer F.SilkS) (width 0.1524))
  (fp_poly (pts (xy -0.15 3.6) (xy 0.15 3.6) (xy 0.15 1.5) (xy -0.15 1.5)) (layer F.Fab) (width 0))
  (pad 1 thru_hole circle (at 0 2.54) (size 1.2192 1.2192) (drill 0.6096) (layers *.Cu *.Mask)
    (solder_mask_margin 0.1016))
  (pad 2 thru_hole circle (at 0 0) (size 1.2192 1.2192) (drill 0.6096) (layers *.Cu *.Mask)
    (solder_mask_margin 0.1016))
  (pad 3 thru_hole circle (at 0 -2.54) (size 1.2192 1.2192) (drill 0.6096) (layers *.Cu *.Mask)
    (solder_mask_margin 0.1016))
)
