(module SIL7 (layer F.Cu) (tedit 0)
  (descr "<b>Single In Line</b>")
  (fp_text reference RN1 (at -10.16 1.2446 -270) (layer F.SilkS)
    (effects (font (size 1.2065 1.2065) (thickness 0.12065)) (justify left bottom))
  )
  (fp_text value "" (at -1.905 -1.27 -180) (layer F.Fab)
    (effects (font (size 1.2065 1.2065) (thickness 0.12065)) (justify left bottom))
  )
  (fp_line (start -8.382 1.016) (end 8.382 1.016) (layer F.SilkS) (width 0.1524))
  (fp_line (start 8.382 -1.016) (end -8.382 -1.016) (layer F.SilkS) (width 0.1524))
  (fp_line (start -8.382 -0.762) (end -6.858 -0.762) (layer F.Fab) (width 0.1524))
  (fp_line (start -6.858 -0.762) (end -6.858 0.762) (layer F.Fab) (width 0.1524))
  (fp_line (start -6.858 0.762) (end -8.382 0.762) (layer F.Fab) (width 0.1524))
  (fp_line (start -8.382 0.762) (end -8.382 -0.762) (layer F.Fab) (width 0.1524))
  (fp_line (start -6.731 -0.889) (end -6.731 0.889) (layer F.SilkS) (width 0.1524))
  (fp_line (start -6.731 0.889) (end -8.509 0.889) (layer F.SilkS) (width 0.1524))
  (fp_arc (start -8.382 -0.507999) (end -8.89 -0.508) (angle 90) (layer F.SilkS) (width 0.1524))
  (fp_arc (start 8.382 0.507999) (end 8.382 1.016) (angle -90) (layer F.SilkS) (width 0.1524))
  (fp_arc (start 8.382 -0.507999) (end 8.382 -1.016) (angle 90) (layer F.SilkS) (width 0.1524))
  (fp_arc (start -8.382 0.507999) (end -8.89 0.508) (angle -90) (layer F.SilkS) (width 0.1524))
  (fp_line (start 8.89 0.508) (end 8.89 -0.508) (layer F.SilkS) (width 0.1524))
  (fp_line (start -8.89 -0.508) (end -8.89 0.508) (layer F.SilkS) (width 0.1524))
  (fp_line (start -6.731 -0.889) (end -8.509 -0.889) (layer F.SilkS) (width 0.1524))
  (fp_line (start -8.509 -0.889) (end -8.509 0.889) (layer F.SilkS) (width 0.1524))
  (fp_line (start -1.778 0) (end -1.143 0) (layer F.Fab) (width 0.1524))
  (fp_line (start 1.778 0) (end 1.143 0) (layer F.Fab) (width 0.1524))
  (fp_line (start -1.143 -0.381) (end 1.143 -0.381) (layer F.Fab) (width 0.1524))
  (fp_line (start 1.143 -0.381) (end 1.143 0) (layer F.Fab) (width 0.1524))
  (fp_line (start 1.143 0) (end 1.143 0.381) (layer F.Fab) (width 0.1524))
  (fp_line (start 1.143 0.381) (end -1.143 0.381) (layer F.Fab) (width 0.1524))
  (fp_line (start -1.143 0.381) (end -1.143 0) (layer F.Fab) (width 0.1524))
  (fp_line (start -1.143 0) (end -1.143 -0.381) (layer F.Fab) (width 0.1524))
  (fp_text user 1 (at -9.906 0.508) (layer F.SilkS)
    (effects (font (size 0.94107 0.94107) (thickness 0.118872)) (justify left bottom))
  )
  (pad 1 thru_hole oval (at -7.62 0 90) (size 2.8448 1.4224) (drill 0.8128) (layers *.Cu *.Mask)
    (solder_mask_margin 0.1016))
  (pad 2 thru_hole oval (at -5.08 0 90) (size 2.8448 1.4224) (drill 0.8128) (layers *.Cu *.Mask)
    (solder_mask_margin 0.1016))
  (pad 3 thru_hole oval (at -2.54 0 90) (size 2.8448 1.4224) (drill 0.8128) (layers *.Cu *.Mask)
    (solder_mask_margin 0.1016))
  (pad 4 thru_hole oval (at 0 0 90) (size 2.8448 1.4224) (drill 0.8128) (layers *.Cu *.Mask)
    (solder_mask_margin 0.1016))
  (pad 5 thru_hole oval (at 2.54 0 90) (size 2.8448 1.4224) (drill 0.8128) (layers *.Cu *.Mask)
    (solder_mask_margin 0.1016))
  (pad 6 thru_hole oval (at 5.08 0 90) (size 2.8448 1.4224) (drill 0.8128) (layers *.Cu *.Mask)
    (solder_mask_margin 0.1016))
  (pad 7 thru_hole oval (at 7.62 0 90) (size 2.8448 1.4224) (drill 0.8128) (layers *.Cu *.Mask)
    (solder_mask_margin 0.1016))
)
