(module TO92- (layer F.Cu) (tedit 0)
  (fp_text reference Q1 (at -0.762 -2.921) (layer F.SilkS)
    (effects (font (size 1.2065 1.2065) (thickness 0.14478)) (justify left bottom))
  )
  (fp_text value 2N3904 (at -2.794 -4.445) (layer F.Fab)
    (effects (font (size 1.2065 1.2065) (thickness 0.14478)) (justify left bottom))
  )
  (fp_arc (start 0 0) (end -0.9692 -2.2098) (angle 47.363718) (layer F.Fab) (width 0.1524))
  (fp_arc (start 0.0003 -0.000017) (end -1.631 1.778) (angle 113.782137) (layer F.SilkS) (width 0.1524))
  (fp_arc (start -0.0003 -0.000017) (end 0.9689 -2.2098) (angle 113.782137) (layer F.SilkS) (width 0.1524))
  (fp_line (start -1.631 1.778) (end 1.631 1.778) (layer F.SilkS) (width 0.1524))
  (fp_line (start -2.54 0) (end -1.778 0) (layer F.SilkS) (width 0.508))
  (fp_line (start 0 0) (end 0 -0.254) (layer F.SilkS) (width 0.508))
  (fp_line (start 2.54 0) (end 1.778 0) (layer F.SilkS) (width 0.508))
  (pad 3 thru_hole circle (at -2.54 0) (size 1.3096 1.3096) (drill 0.7) (layers *.Cu *.Mask)
    (solder_mask_margin 0.1016))
  (pad 2 thru_hole circle (at 0 0) (size 1.3096 1.3096) (drill 0.7) (layers *.Cu *.Mask)
    (solder_mask_margin 0.1016))
  (pad 1 thru_hole circle (at 2.54 0) (size 1.3096 1.3096) (drill 0.7) (layers *.Cu *.Mask)
    (solder_mask_margin 0.1016))
)
